%!PS-Adobe-3.0
%%Creator: PCBNEW
%%CreationDate: Thu Mar  3 07:54:27 2022
%%Title: ()
%%Pages: 1
%%PageOrder: Ascend
%%BoundingBox: 0 0 596 842
%%DocumentMedia: A4 595 842 0 () ()
%%Orientation: Landscape
%%EndComments
%%BeginProlog
/line { newpath moveto lineto stroke } bind def
/cir0 { newpath 0 360 arc stroke } bind def
/cir1 { newpath 0 360 arc gsave fill grestore stroke } bind def
/cir2 { newpath 0 360 arc gsave fill grestore stroke } bind def
/arc0 { newpath arc stroke } bind def
/arc1 { newpath 4 index 4 index moveto arc closepath gsave fill
    grestore stroke } bind def
/arc2 { newpath 4 index 4 index moveto arc closepath gsave fill
    grestore stroke } bind def
/poly0 { stroke } bind def
/poly1 { closepath gsave fill grestore stroke } bind def
/poly2 { closepath gsave fill grestore stroke } bind def
/rect0 { rectstroke } bind def
/rect1 { rectfill } bind def
/rect2 { rectfill } bind def
/linemode0 { 0 setlinecap 0 setlinejoin 0 setlinewidth } bind def
/linemode1 { 1 setlinecap 1 setlinejoin } bind def
/dashedline { [200] 100 setdash } bind def
/solidline { [] 0 setdash } bind def
/phantomshow { moveto
    /KicadFont findfont 0.000001 scalefont setfont
    show } bind def
/textshow { gsave
    findfont exch scalefont setfont concat 1 scale 0 0 moveto show
    } bind def
/reencodefont {
  findfont dup length dict begin
  { 1 index /FID ne
    { def }
    { pop pop } ifelse
  } forall
  /Encoding ISOLatin1Encoding def
  currentdict
  end } bind def
/KicadFont /Helvetica reencodefont definefont pop
/KicadFont-Bold /Helvetica-Bold reencodefont definefont pop
/KicadFont-Oblique /Helvetica-Oblique reencodefont definefont pop
/KicadFont-BoldOblique /Helvetica-BoldOblique reencodefont definefont pop
%%EndProlog
%%Page: 1 1
%%BeginPageSetup
gsave
0.0072 0.0072 scale
linemode1
82680 0 translate 90 rotate
75.4076 setlinewidth
%%EndPageSetup
0 0 0 setrgbcolor
37.7038 setlinewidth
newpath
59092.4 80692.6 moveto
64378.7 80692.6 lineto
stroke
0 0 0 setrgbcolor
58465.1 80692.6 627.351 -180 -0 arc0
0 0 0 setrgbcolor
newpath
52551.3 80692.6 moveto
57837.7 80692.6 lineto
stroke
0 0 0 setrgbcolor
newpath
64378.7 80692.6 moveto
64378.7 35059.4 lineto
stroke
0 0 0 setrgbcolor
newpath
64378.7 35059.4 moveto
52551.3 35059.4 lineto
stroke
0 0 0 setrgbcolor
newpath
52551.3 35059.4 moveto
52551.3 80692.6 lineto
stroke
75.4076 setlinewidth
0 0 0 setrgbcolor
0 0 0 setrgbcolor
newpath
53466.1 33869.9 moveto
53466.1 34624 lineto
stroke
newpath
53466.1 34624 moveto
53645.7 34624 lineto
stroke
newpath
53645.7 34624 moveto
53753.4 34588.1 lineto
stroke
newpath
53753.4 34588.1 moveto
53825.2 34516.2 lineto
stroke
newpath
53825.2 34516.2 moveto
53861.1 34444.4 lineto
stroke
newpath
53861.1 34444.4 moveto
53897 34300.8 lineto
stroke
newpath
53897 34300.8 moveto
53897 34193.1 lineto
stroke
newpath
53897 34193.1 moveto
53861.1 34049.4 lineto
stroke
newpath
53861.1 34049.4 moveto
53825.2 33977.6 lineto
stroke
newpath
53825.2 33977.6 moveto
53753.4 33905.8 lineto
stroke
newpath
53753.4 33905.8 moveto
53645.7 33869.9 lineto
stroke
newpath
53645.7 33869.9 moveto
53466.1 33869.9 lineto
stroke
newpath
54220.2 33869.9 moveto
54220.2 34372.6 lineto
stroke
newpath
54220.2 34229 moveto
54256.1 34300.8 lineto
stroke
newpath
54256.1 34300.8 moveto
54292 34336.7 lineto
stroke
newpath
54292 34336.7 moveto
54363.8 34372.6 lineto
stroke
newpath
54363.8 34372.6 moveto
54435.6 34372.6 lineto
stroke
newpath
54687 33869.9 moveto
54687 34372.6 lineto
stroke
newpath
54687 34624 moveto
54651.1 34588.1 lineto
stroke
newpath
54651.1 34588.1 moveto
54687 34552.2 lineto
stroke
newpath
54687 34552.2 moveto
54722.9 34588.1 lineto
stroke
newpath
54722.9 34588.1 moveto
54687 34624 lineto
stroke
newpath
54687 34624 moveto
54687 34552.2 lineto
stroke
newpath
55153.8 33869.9 moveto
55082 33905.8 lineto
stroke
newpath
55082 33905.8 moveto
55046.1 33977.6 lineto
stroke
newpath
55046.1 33977.6 moveto
55046.1 34624 lineto
stroke
newpath
55548.8 33869.9 moveto
55477 33905.8 lineto
stroke
newpath
55477 33905.8 moveto
55441.1 33977.6 lineto
stroke
newpath
55441.1 33977.6 moveto
55441.1 34624 lineto
stroke
newpath
56288.5 33869.9 moveto
56288.5 34624 lineto
stroke
newpath
56288.5 34624 moveto
56539.9 34085.3 lineto
stroke
newpath
56539.9 34085.3 moveto
56791.2 34624 lineto
stroke
newpath
56791.2 34624 moveto
56791.2 33869.9 lineto
stroke
newpath
57473.5 33869.9 moveto
57473.5 34264.9 lineto
stroke
newpath
57473.5 34264.9 moveto
57437.6 34336.7 lineto
stroke
newpath
57437.6 34336.7 moveto
57365.8 34372.6 lineto
stroke
newpath
57365.8 34372.6 moveto
57222.1 34372.6 lineto
stroke
newpath
57222.1 34372.6 moveto
57150.3 34336.7 lineto
stroke
newpath
57473.5 33905.8 moveto
57401.7 33869.9 lineto
stroke
newpath
57401.7 33869.9 moveto
57222.1 33869.9 lineto
stroke
newpath
57222.1 33869.9 moveto
57150.3 33905.8 lineto
stroke
newpath
57150.3 33905.8 moveto
57114.4 33977.6 lineto
stroke
newpath
57114.4 33977.6 moveto
57114.4 34049.4 lineto
stroke
newpath
57114.4 34049.4 moveto
57150.3 34121.2 lineto
stroke
newpath
57150.3 34121.2 moveto
57222.1 34157.2 lineto
stroke
newpath
57222.1 34157.2 moveto
57401.7 34157.2 lineto
stroke
newpath
57401.7 34157.2 moveto
57473.5 34193.1 lineto
stroke
newpath
57832.6 34372.6 moveto
57832.6 33618.5 lineto
stroke
newpath
57832.6 34336.7 moveto
57904.4 34372.6 lineto
stroke
newpath
57904.4 34372.6 moveto
58048 34372.6 lineto
stroke
newpath
58048 34372.6 moveto
58119.8 34336.7 lineto
stroke
newpath
58119.8 34336.7 moveto
58155.7 34300.8 lineto
stroke
newpath
58155.7 34300.8 moveto
58191.7 34229 lineto
stroke
newpath
58191.7 34229 moveto
58191.7 34013.5 lineto
stroke
newpath
58191.7 34013.5 moveto
58155.7 33941.7 lineto
stroke
newpath
58155.7 33941.7 moveto
58119.8 33905.8 lineto
stroke
newpath
58119.8 33905.8 moveto
58048 33869.9 lineto
stroke
newpath
58048 33869.9 moveto
57904.4 33869.9 lineto
stroke
newpath
57904.4 33869.9 moveto
57832.6 33905.8 lineto
stroke
newpath
58514.8 33941.7 moveto
58550.7 33905.8 lineto
stroke
newpath
58550.7 33905.8 moveto
58514.8 33869.9 lineto
stroke
newpath
58514.8 33869.9 moveto
58478.9 33905.8 lineto
stroke
newpath
58478.9 33905.8 moveto
58514.8 33941.7 lineto
stroke
newpath
58514.8 33941.7 moveto
58514.8 33869.9 lineto
stroke
newpath
58514.8 34336.7 moveto
58550.7 34300.8 lineto
stroke
newpath
58550.7 34300.8 moveto
58514.8 34264.9 lineto
stroke
newpath
58514.8 34264.9 moveto
58478.9 34300.8 lineto
stroke
newpath
58478.9 34300.8 moveto
58514.8 34336.7 lineto
stroke
newpath
58514.8 34336.7 moveto
58514.8 34264.9 lineto
stroke
showpage
grestore
%%EOF
