%!PS-Adobe-3.0
%%Creator: PCBNEW
%%CreationDate: Thu Mar  3 07:54:27 2022
%%Title: ()
%%Pages: 1
%%PageOrder: Ascend
%%BoundingBox: 0 0 596 842
%%DocumentMedia: A4 595 842 0 () ()
%%Orientation: Landscape
%%EndComments
%%BeginProlog
/line { newpath moveto lineto stroke } bind def
/cir0 { newpath 0 360 arc stroke } bind def
/cir1 { newpath 0 360 arc gsave fill grestore stroke } bind def
/cir2 { newpath 0 360 arc gsave fill grestore stroke } bind def
/arc0 { newpath arc stroke } bind def
/arc1 { newpath 4 index 4 index moveto arc closepath gsave fill
    grestore stroke } bind def
/arc2 { newpath 4 index 4 index moveto arc closepath gsave fill
    grestore stroke } bind def
/poly0 { stroke } bind def
/poly1 { closepath gsave fill grestore stroke } bind def
/poly2 { closepath gsave fill grestore stroke } bind def
/rect0 { rectstroke } bind def
/rect1 { rectfill } bind def
/rect2 { rectfill } bind def
/linemode0 { 0 setlinecap 0 setlinejoin 0 setlinewidth } bind def
/linemode1 { 1 setlinecap 1 setlinejoin } bind def
/dashedline { [200] 100 setdash } bind def
/solidline { [] 0 setdash } bind def
/phantomshow { moveto
    /KicadFont findfont 0.000001 scalefont setfont
    show } bind def
/textshow { gsave
    findfont exch scalefont setfont concat 1 scale 0 0 moveto show
    } bind def
/reencodefont {
  findfont dup length dict begin
  { 1 index /FID ne
    { def }
    { pop pop } ifelse
  } forall
  /Encoding ISOLatin1Encoding def
  currentdict
  end } bind def
/KicadFont /Helvetica reencodefont definefont pop
/KicadFont-Bold /Helvetica-Bold reencodefont definefont pop
/KicadFont-Oblique /Helvetica-Oblique reencodefont definefont pop
/KicadFont-BoldOblique /Helvetica-BoldOblique reencodefont definefont pop
%%EndProlog
%%Page: 1 1
%%BeginPageSetup
gsave
0.0072 0.0072 scale
linemode1
82680 0 translate 90 rotate
75.4076 setlinewidth
%%EndPageSetup
0 0 0 setrgbcolor
37.7038 setlinewidth
newpath
59092.4 80692.6 moveto
64378.7 80692.6 lineto
stroke
0 0 0 setrgbcolor
58465.1 80692.6 627.351 -180 -0 arc0
0 0 0 setrgbcolor
newpath
52551.3 80692.6 moveto
57837.7 80692.6 lineto
stroke
0 0 0 setrgbcolor
newpath
64378.7 80692.6 moveto
64378.7 35059.4 lineto
stroke
0 0 0 setrgbcolor
newpath
64378.7 35059.4 moveto
52551.3 35059.4 lineto
stroke
0 0 0 setrgbcolor
newpath
52551.3 35059.4 moveto
52551.3 80692.6 lineto
stroke
75.4076 setlinewidth
15.0815 setlinewidth
newpath
55674.6 78929.3 moveto
55825.4 78778.5 lineto
stroke
newpath
55825.4 78929.3 moveto
55674.6 78778.5 lineto
stroke
newpath
55674.6 77895 moveto
55825.4 77744.2 lineto
stroke
newpath
55825.4 77895 moveto
55674.6 77744.2 lineto
stroke
newpath
55674.6 75826.4 moveto
55825.4 75675.6 lineto
stroke
newpath
55825.4 75826.4 moveto
55674.6 75675.6 lineto
stroke
newpath
55703.3 73920.7 moveto
55854.1 73769.8 lineto
stroke
newpath
55854.1 73920.7 moveto
55703.3 73769.8 lineto
stroke
newpath
55722.5 74887.9 moveto
55873.3 74737.1 lineto
stroke
newpath
55873.3 74887.9 moveto
55722.5 74737.1 lineto
stroke
newpath
55751.2 76860.7 moveto
55902 76709.9 lineto
stroke
newpath
55902 76860.7 moveto
55751.2 76709.9 lineto
stroke
newpath
55760.8 72685.3 moveto
55911.6 72534.4 lineto
stroke
newpath
55911.6 72685.3 moveto
55760.8 72534.4 lineto
stroke
newpath
55760.8 71430.7 moveto
55911.6 71279.9 lineto
stroke
newpath
55911.6 71430.7 moveto
55760.8 71279.9 lineto
stroke
newpath
55779.9 70588 moveto
55930.7 70437.1 lineto
stroke
newpath
55930.7 70588 moveto
55779.9 70437.1 lineto
stroke
newpath
55779.9 69592 moveto
55930.7 69441.2 lineto
stroke
newpath
55930.7 69592 moveto
55779.9 69441.2 lineto
stroke
newpath
55818.2 68663 moveto
55969 68512.2 lineto
stroke
newpath
55969 68663 moveto
55818.2 68512.2 lineto
stroke
newpath
55847 67657.5 moveto
55997.8 67506.6 lineto
stroke
newpath
55997.8 67657.5 moveto
55847 67506.6 lineto
stroke
newpath
55885.3 66718.9 moveto
56036.1 66568.1 lineto
stroke
newpath
56036.1 66718.9 moveto
55885.3 66568.1 lineto
stroke
newpath
55894.8 65713.4 moveto
56045.7 65562.6 lineto
stroke
newpath
56045.7 65713.4 moveto
55894.8 65562.6 lineto
stroke
newpath
55990.6 64631.2 moveto
56141.4 64480.4 lineto
stroke
newpath
56141.4 64631.2 moveto
55990.6 64480.4 lineto
stroke
newpath
55990.6 63146.8 moveto
56141.4 62996 lineto
stroke
newpath
56141.4 63146.8 moveto
55990.6 62996 lineto
stroke
newpath
55990.6 62342.4 moveto
56141.4 62191.5 lineto
stroke
newpath
56141.4 62342.4 moveto
55990.6 62191.5 lineto
stroke
newpath
55990.6 61193.1 moveto
56141.4 61042.3 lineto
stroke
newpath
56141.4 61193.1 moveto
55990.6 61042.3 lineto
stroke
newpath
55990.6 59938.6 moveto
56141.4 59787.8 lineto
stroke
newpath
56141.4 59938.6 moveto
55990.6 59787.8 lineto
stroke
newpath
55990.6 59095.8 moveto
56141.4 58945 lineto
stroke
newpath
56141.4 59095.8 moveto
55990.6 58945 lineto
stroke
newpath
55990.6 58042.4 moveto
56141.4 57891.6 lineto
stroke
newpath
56141.4 58042.4 moveto
55990.6 57891.6 lineto
stroke
newpath
55990.6 56988.9 moveto
56141.4 56838.1 lineto
stroke
newpath
56141.4 56988.9 moveto
55990.6 56838.1 lineto
stroke
newpath
55990.6 56146.2 moveto
56141.4 55995.4 lineto
stroke
newpath
56141.4 56146.2 moveto
55990.6 55995.4 lineto
stroke
newpath
55990.6 54891.6 moveto
56141.4 54740.8 lineto
stroke
newpath
56141.4 54891.6 moveto
55990.6 54740.8 lineto
stroke
newpath
55990.6 53627.5 moveto
56141.4 53476.7 lineto
stroke
newpath
56141.4 53627.5 moveto
55990.6 53476.7 lineto
stroke
newpath
55990.6 52784.7 moveto
56141.4 52633.9 lineto
stroke
newpath
56141.4 52784.7 moveto
55990.6 52633.9 lineto
stroke
newpath
55990.6 51731.3 moveto
56141.4 51580.5 lineto
stroke
newpath
56141.4 51731.3 moveto
55990.6 51580.5 lineto
stroke
newpath
55990.6 50898.1 moveto
56141.4 50747.3 lineto
stroke
newpath
56141.4 50898.1 moveto
55990.6 50747.3 lineto
stroke
newpath
55990.6 49634 moveto
56141.4 49483.2 lineto
stroke
newpath
56141.4 49634 moveto
55990.6 49483.2 lineto
stroke
newpath
55990.6 48369.9 moveto
56141.4 48219 lineto
stroke
newpath
56141.4 48369.9 moveto
55990.6 48219 lineto
stroke
newpath
55990.6 47316.4 moveto
56141.4 47165.6 lineto
stroke
newpath
56141.4 47316.4 moveto
55990.6 47165.6 lineto
stroke
newpath
58346.5 40411.6 moveto
58497.3 40260.7 lineto
stroke
newpath
58497.3 40411.6 moveto
58346.5 40260.7 lineto
stroke
newpath
58356.1 64841.9 moveto
58506.9 64691.1 lineto
stroke
newpath
58506.9 64841.9 moveto
58356.1 64691.1 lineto
stroke
newpath
58356.1 48666.7 moveto
58506.9 48515.9 lineto
stroke
newpath
58506.9 48666.7 moveto
58356.1 48515.9 lineto
stroke
newpath
58356.1 42652.5 moveto
58506.9 42501.7 lineto
stroke
newpath
58506.9 42652.5 moveto
58356.1 42501.7 lineto
stroke
newpath
58375.2 71603.1 moveto
58526 71452.3 lineto
stroke
newpath
58526 71603.1 moveto
58375.2 71452.3 lineto
stroke
newpath
58394.4 55878 moveto
58545.2 55727.2 lineto
stroke
newpath
58545.2 55878 moveto
58394.4 55727.2 lineto
stroke
newpath
58404 59603.4 moveto
58554.8 59452.6 lineto
stroke
newpath
58554.8 59603.4 moveto
58404 59452.6 lineto
stroke
newpath
60788.6 69582.4 moveto
60939.4 69431.6 lineto
stroke
newpath
60939.4 69582.4 moveto
60788.6 69431.6 lineto
stroke
newpath
60807.7 71832.9 moveto
60958.5 71682.1 lineto
stroke
newpath
60958.5 71832.9 moveto
60807.7 71682.1 lineto
stroke
newpath
60817.3 74916.6 moveto
60968.1 74765.8 lineto
stroke
newpath
60968.1 74916.6 moveto
60817.3 74765.8 lineto
stroke
newpath
60826.9 73959 moveto
60977.7 73808.2 lineto
stroke
newpath
60977.7 73959 moveto
60826.9 73808.2 lineto
stroke
newpath
60826.9 70520.9 moveto
60977.7 70370.1 lineto
stroke
newpath
60977.7 70520.9 moveto
60826.9 70370.1 lineto
stroke
newpath
60826.9 52851.8 moveto
60977.7 52701 lineto
stroke
newpath
60977.7 52851.8 moveto
60826.9 52701 lineto
stroke
newpath
60826.9 51961.1 moveto
60977.7 51810.3 lineto
stroke
newpath
60977.7 51961.1 moveto
60826.9 51810.3 lineto
stroke
newpath
60826.9 50898.1 moveto
60977.7 50747.3 lineto
stroke
newpath
60977.7 50898.1 moveto
60826.9 50747.3 lineto
stroke
newpath
60826.9 49988.3 moveto
60977.7 49837.5 lineto
stroke
newpath
60977.7 49988.3 moveto
60826.9 49837.5 lineto
stroke
newpath
60826.9 48733.8 moveto
60977.7 48583 lineto
stroke
newpath
60977.7 48733.8 moveto
60826.9 48583 lineto
stroke
newpath
60826.9 47479.2 moveto
60977.7 47328.4 lineto
stroke
newpath
60977.7 47479.2 moveto
60826.9 47328.4 lineto
stroke
newpath
60836.5 77128.9 moveto
60987.3 76978.1 lineto
stroke
newpath
60987.3 77128.9 moveto
60836.5 76978.1 lineto
stroke
newpath
60836.5 75874.3 moveto
60987.3 75723.5 lineto
stroke
newpath
60987.3 75874.3 moveto
60836.5 75723.5 lineto
stroke
newpath
60836.5 54288.3 moveto
60987.3 54137.5 lineto
stroke
newpath
60987.3 54288.3 moveto
60836.5 54137.5 lineto
stroke
newpath
60846 68624.7 moveto
60996.8 68473.9 lineto
stroke
newpath
60996.8 68624.7 moveto
60846 68473.9 lineto
stroke
newpath
60846 67705.3 moveto
60996.8 67554.5 lineto
stroke
newpath
60996.8 67705.3 moveto
60846 67554.5 lineto
stroke
newpath
60846 61518.8 moveto
60996.8 61367.9 lineto
stroke
newpath
60996.8 61518.8 moveto
60846 61367.9 lineto
stroke
newpath
60855.6 73001.3 moveto
61006.4 72850.5 lineto
stroke
newpath
61006.4 73001.3 moveto
60855.6 72850.5 lineto
stroke
newpath
60855.6 66153.9 moveto
61006.4 66003.1 lineto
stroke
newpath
61006.4 66153.9 moveto
60855.6 66003.1 lineto
stroke
newpath
60855.6 57161.3 moveto
61006.4 57010.5 lineto
stroke
newpath
61006.4 57161.3 moveto
60855.6 57010.5 lineto
stroke
newpath
60855.6 56088.7 moveto
61006.4 55937.9 lineto
stroke
newpath
61006.4 56088.7 moveto
60855.6 55937.9 lineto
stroke
newpath
60865.2 64803.6 moveto
61016 64652.8 lineto
stroke
newpath
61016 64803.6 moveto
60865.2 64652.8 lineto
stroke
newpath
60865.2 63271.3 moveto
61016 63120.5 lineto
stroke
newpath
61016 63271.3 moveto
60865.2 63120.5 lineto
stroke
newpath
60874.8 59067.1 moveto
61025.6 58916.3 lineto
stroke
newpath
61025.6 59067.1 moveto
60874.8 58916.3 lineto
stroke
newpath
60884.3 60350.4 moveto
61035.2 60199.6 lineto
stroke
newpath
61035.2 60350.4 moveto
60884.3 60199.6 lineto
stroke
newpath
60884.3 58061.5 moveto
61035.2 57910.7 lineto
stroke
newpath
61035.2 58061.5 moveto
60884.3 57910.7 lineto
stroke
newpath
60893.9 62486 moveto
61044.7 62335.2 lineto
stroke
newpath
61044.7 62486 moveto
60893.9 62335.2 lineto
stroke
newpath
61344 78958 moveto
61494.8 78807.2 lineto
stroke
newpath
61494.8 78958 moveto
61344 78807.2 lineto
stroke
30.163 setlinewidth
54189 77676 150.815 cir0
54189 76718.3 150.815 cir0
54189 75760.6 150.815 cir0
54189 74802.9 150.815 cir0
54189 73845.3 150.815 cir0
54189 72887.6 150.815 cir0
54189 71929.9 150.815 cir0
54189 70972.2 150.815 cir0
54189 70014.6 150.815 cir0
54189 69056.9 150.815 cir0
54189 68099.2 150.815 cir0
54189 67141.5 150.815 cir0
54189 66183.8 150.815 cir0
54189 65226.2 150.815 cir0
54189 64268.5 150.815 cir0
54189 63310.8 150.815 cir0
54189 62353.1 150.815 cir0
54189 61395.5 150.815 cir0
54189 60437.8 150.815 cir0
54189 59480.1 150.815 cir0
54189 58522.4 150.815 cir0
54189 57564.8 150.815 cir0
54189 56607.1 150.815 cir0
54189 55649.4 150.815 cir0
54189 54691.7 150.815 cir0
54189 53734 150.815 cir0
54189 52776.4 150.815 cir0
54189 51818.7 150.815 cir0
54189 50861 150.815 cir0
54189 49903.3 150.815 cir0
54189 48945.7 150.815 cir0
54189 47988 150.815 cir0
62808.1 77676 150.815 cir0
62808.1 76718.3 150.815 cir0
62808.1 75760.6 150.815 cir0
62808.1 74802.9 150.815 cir0
62808.1 73845.3 150.815 cir0
62808.1 72887.6 150.815 cir0
62808.1 71929.9 150.815 cir0
62808.1 70972.2 150.815 cir0
62808.1 70014.6 150.815 cir0
62808.1 69056.9 150.815 cir0
62808.1 68099.2 150.815 cir0
62808.1 67141.5 150.815 cir0
62808.1 66183.8 150.815 cir0
62808.1 65226.2 150.815 cir0
62808.1 64268.5 150.815 cir0
62808.1 63310.8 150.815 cir0
62808.1 62353.1 150.815 cir0
62808.1 61395.5 150.815 cir0
62808.1 60437.8 150.815 cir0
62808.1 59480.1 150.815 cir0
62808.1 58522.4 150.815 cir0
62808.1 57564.8 150.815 cir0
62808.1 56607.1 150.815 cir0
62808.1 55649.4 150.815 cir0
62808.1 54691.7 150.815 cir0
62808.1 53734 150.815 cir0
62808.1 52776.4 150.815 cir0
62808.1 51818.7 150.815 cir0
62808.1 50861 150.815 cir0
62808.1 49903.3 150.815 cir0
62808.1 48945.7 150.815 cir0
62808.1 47988 150.815 cir0
38.3071 setlinewidth
newpath
57531.3 77819.6 moveto
57531.3 77436.5 lineto
stroke
newpath
57339.7 77628.1 moveto
57722.8 77628.1 lineto
stroke
newpath
57531.3 76861.9 moveto
57531.3 76478.9 lineto
stroke
newpath
57339.7 76670.4 moveto
57722.8 76670.4 lineto
stroke
newpath
57531.3 75904.3 moveto
57531.3 75521.2 lineto
stroke
newpath
57339.7 75712.7 moveto
57722.8 75712.7 lineto
stroke
newpath
57531.3 74946.6 moveto
57531.3 74563.5 lineto
stroke
newpath
57339.7 74755 moveto
57722.8 74755 lineto
stroke
newpath
57531.3 73988.9 moveto
57531.3 73605.8 lineto
stroke
newpath
57339.7 73797.4 moveto
57722.8 73797.4 lineto
stroke
newpath
57531.3 73031.2 moveto
57531.3 72648.2 lineto
stroke
newpath
57339.7 72839.7 moveto
57722.8 72839.7 lineto
stroke
newpath
57531.3 72073.6 moveto
57531.3 71690.5 lineto
stroke
newpath
57339.7 71882 moveto
57722.8 71882 lineto
stroke
newpath
57531.3 71115.9 moveto
57531.3 70732.8 lineto
stroke
newpath
57339.7 70924.3 moveto
57722.8 70924.3 lineto
stroke
newpath
57531.3 70158.2 moveto
57531.3 69775.1 lineto
stroke
newpath
57339.7 69966.7 moveto
57722.8 69966.7 lineto
stroke
newpath
57531.3 69200.5 moveto
57531.3 68817.5 lineto
stroke
newpath
57339.7 69009 moveto
57722.8 69009 lineto
stroke
newpath
57531.3 68242.8 moveto
57531.3 67859.8 lineto
stroke
newpath
57339.7 68051.3 moveto
57722.8 68051.3 lineto
stroke
newpath
57531.3 67285.2 moveto
57531.3 66902.1 lineto
stroke
newpath
57339.7 67093.6 moveto
57722.8 67093.6 lineto
stroke
newpath
57531.3 66327.5 moveto
57531.3 65944.4 lineto
stroke
newpath
57339.7 66136 moveto
57722.8 66136 lineto
stroke
newpath
57531.3 65369.8 moveto
57531.3 64986.7 lineto
stroke
newpath
57339.7 65178.3 moveto
57722.8 65178.3 lineto
stroke
newpath
57531.3 64412.1 moveto
57531.3 64029.1 lineto
stroke
newpath
57339.7 64220.6 moveto
57722.8 64220.6 lineto
stroke
newpath
57531.3 63454.5 moveto
57531.3 63071.4 lineto
stroke
newpath
57339.7 63262.9 moveto
57722.8 63262.9 lineto
stroke
newpath
57531.3 62496.8 moveto
57531.3 62113.7 lineto
stroke
newpath
57339.7 62305.3 moveto
57722.8 62305.3 lineto
stroke
newpath
57531.3 61539.1 moveto
57531.3 61156 lineto
stroke
newpath
57339.7 61347.6 moveto
57722.8 61347.6 lineto
stroke
newpath
57531.3 60581.4 moveto
57531.3 60198.4 lineto
stroke
newpath
57339.7 60389.9 moveto
57722.8 60389.9 lineto
stroke
newpath
57531.3 59623.8 moveto
57531.3 59240.7 lineto
stroke
newpath
57339.7 59432.2 moveto
57722.8 59432.2 lineto
stroke
newpath
57531.3 58666.1 moveto
57531.3 58283 lineto
stroke
newpath
57339.7 58474.5 moveto
57722.8 58474.5 lineto
stroke
newpath
57531.3 57708.4 moveto
57531.3 57325.3 lineto
stroke
newpath
57339.7 57516.9 moveto
57722.8 57516.9 lineto
stroke
newpath
57531.3 56750.7 moveto
57531.3 56367.7 lineto
stroke
newpath
57339.7 56559.2 moveto
57722.8 56559.2 lineto
stroke
newpath
57531.3 55793.1 moveto
57531.3 55410 lineto
stroke
newpath
57339.7 55601.5 moveto
57722.8 55601.5 lineto
stroke
newpath
57531.3 54835.4 moveto
57531.3 54452.3 lineto
stroke
newpath
57339.7 54643.8 moveto
57722.8 54643.8 lineto
stroke
newpath
57531.3 53877.7 moveto
57531.3 53494.6 lineto
stroke
newpath
57339.7 53686.2 moveto
57722.8 53686.2 lineto
stroke
newpath
57531.3 52920 moveto
57531.3 52537 lineto
stroke
newpath
57339.7 52728.5 moveto
57722.8 52728.5 lineto
stroke
newpath
57531.3 51962.3 moveto
57531.3 51579.3 lineto
stroke
newpath
57339.7 51770.8 moveto
57722.8 51770.8 lineto
stroke
newpath
57531.3 51004.7 moveto
57531.3 50621.6 lineto
stroke
newpath
57339.7 50813.1 moveto
57722.8 50813.1 lineto
stroke
newpath
57531.3 50047 moveto
57531.3 49663.9 lineto
stroke
newpath
57339.7 49855.5 moveto
57722.8 49855.5 lineto
stroke
newpath
57531.3 49089.3 moveto
57531.3 48706.2 lineto
stroke
newpath
57339.7 48897.8 moveto
57722.8 48897.8 lineto
stroke
newpath
57531.3 48131.6 moveto
57531.3 47748.6 lineto
stroke
newpath
57339.7 47940.1 moveto
57722.8 47940.1 lineto
stroke
newpath
57531.3 47174 moveto
57531.3 46790.9 lineto
stroke
newpath
57339.7 46982.4 moveto
57722.8 46982.4 lineto
stroke
newpath
57531.3 46216.3 moveto
57531.3 45833.2 lineto
stroke
newpath
57339.7 46024.8 moveto
57722.8 46024.8 lineto
stroke
newpath
57531.3 45258.6 moveto
57531.3 44875.5 lineto
stroke
newpath
57339.7 45067.1 moveto
57722.8 45067.1 lineto
stroke
newpath
57531.3 44300.9 moveto
57531.3 43917.9 lineto
stroke
newpath
57339.7 44109.4 moveto
57722.8 44109.4 lineto
stroke
newpath
57531.3 43343.3 moveto
57531.3 42960.2 lineto
stroke
newpath
57339.7 43151.7 moveto
57722.8 43151.7 lineto
stroke
newpath
57531.3 42385.6 moveto
57531.3 42002.5 lineto
stroke
newpath
57339.7 42194 moveto
57722.8 42194 lineto
stroke
newpath
57531.3 41427.9 moveto
57531.3 41044.8 lineto
stroke
newpath
57339.7 41236.4 moveto
57722.8 41236.4 lineto
stroke
newpath
57531.3 40470.2 moveto
57531.3 40087.2 lineto
stroke
newpath
57339.7 40278.7 moveto
57722.8 40278.7 lineto
stroke
newpath
57531.3 39512.6 moveto
57531.3 39129.5 lineto
stroke
newpath
57339.7 39321 moveto
57722.8 39321 lineto
stroke
newpath
57531.3 38554.9 moveto
57531.3 38171.8 lineto
stroke
newpath
57339.7 38363.3 moveto
57722.8 38363.3 lineto
stroke
newpath
57531.3 37597.2 moveto
57531.3 37214.1 lineto
stroke
newpath
57339.7 37405.7 moveto
57722.8 37405.7 lineto
stroke
newpath
59446.6 77819.6 moveto
59446.6 77436.5 lineto
stroke
newpath
59255.1 77628.1 moveto
59638.2 77628.1 lineto
stroke
newpath
59446.6 76861.9 moveto
59446.6 76478.9 lineto
stroke
newpath
59255.1 76670.4 moveto
59638.2 76670.4 lineto
stroke
newpath
59446.6 75904.3 moveto
59446.6 75521.2 lineto
stroke
newpath
59255.1 75712.7 moveto
59638.2 75712.7 lineto
stroke
newpath
59446.6 74946.6 moveto
59446.6 74563.5 lineto
stroke
newpath
59255.1 74755 moveto
59638.2 74755 lineto
stroke
newpath
59446.6 73988.9 moveto
59446.6 73605.8 lineto
stroke
newpath
59255.1 73797.4 moveto
59638.2 73797.4 lineto
stroke
newpath
59446.6 73031.2 moveto
59446.6 72648.2 lineto
stroke
newpath
59255.1 72839.7 moveto
59638.2 72839.7 lineto
stroke
newpath
59446.6 72073.6 moveto
59446.6 71690.5 lineto
stroke
newpath
59255.1 71882 moveto
59638.2 71882 lineto
stroke
newpath
59446.6 71115.9 moveto
59446.6 70732.8 lineto
stroke
newpath
59255.1 70924.3 moveto
59638.2 70924.3 lineto
stroke
newpath
59446.6 70158.2 moveto
59446.6 69775.1 lineto
stroke
newpath
59255.1 69966.7 moveto
59638.2 69966.7 lineto
stroke
newpath
59446.6 69200.5 moveto
59446.6 68817.5 lineto
stroke
newpath
59255.1 69009 moveto
59638.2 69009 lineto
stroke
newpath
59446.6 68242.8 moveto
59446.6 67859.8 lineto
stroke
newpath
59255.1 68051.3 moveto
59638.2 68051.3 lineto
stroke
newpath
59446.6 67285.2 moveto
59446.6 66902.1 lineto
stroke
newpath
59255.1 67093.6 moveto
59638.2 67093.6 lineto
stroke
newpath
59446.6 66327.5 moveto
59446.6 65944.4 lineto
stroke
newpath
59255.1 66136 moveto
59638.2 66136 lineto
stroke
newpath
59446.6 65369.8 moveto
59446.6 64986.7 lineto
stroke
newpath
59255.1 65178.3 moveto
59638.2 65178.3 lineto
stroke
newpath
59446.6 64412.1 moveto
59446.6 64029.1 lineto
stroke
newpath
59255.1 64220.6 moveto
59638.2 64220.6 lineto
stroke
newpath
59446.6 63454.5 moveto
59446.6 63071.4 lineto
stroke
newpath
59255.1 63262.9 moveto
59638.2 63262.9 lineto
stroke
newpath
59446.6 62496.8 moveto
59446.6 62113.7 lineto
stroke
newpath
59255.1 62305.3 moveto
59638.2 62305.3 lineto
stroke
newpath
59446.6 61539.1 moveto
59446.6 61156 lineto
stroke
newpath
59255.1 61347.6 moveto
59638.2 61347.6 lineto
stroke
newpath
59446.6 60581.4 moveto
59446.6 60198.4 lineto
stroke
newpath
59255.1 60389.9 moveto
59638.2 60389.9 lineto
stroke
newpath
59446.6 59623.8 moveto
59446.6 59240.7 lineto
stroke
newpath
59255.1 59432.2 moveto
59638.2 59432.2 lineto
stroke
newpath
59446.6 58666.1 moveto
59446.6 58283 lineto
stroke
newpath
59255.1 58474.5 moveto
59638.2 58474.5 lineto
stroke
newpath
59446.6 57708.4 moveto
59446.6 57325.3 lineto
stroke
newpath
59255.1 57516.9 moveto
59638.2 57516.9 lineto
stroke
newpath
59446.6 56750.7 moveto
59446.6 56367.7 lineto
stroke
newpath
59255.1 56559.2 moveto
59638.2 56559.2 lineto
stroke
newpath
59446.6 55793.1 moveto
59446.6 55410 lineto
stroke
newpath
59255.1 55601.5 moveto
59638.2 55601.5 lineto
stroke
newpath
59446.6 54835.4 moveto
59446.6 54452.3 lineto
stroke
newpath
59255.1 54643.8 moveto
59638.2 54643.8 lineto
stroke
newpath
59446.6 53877.7 moveto
59446.6 53494.6 lineto
stroke
newpath
59255.1 53686.2 moveto
59638.2 53686.2 lineto
stroke
newpath
59446.6 52920 moveto
59446.6 52537 lineto
stroke
newpath
59255.1 52728.5 moveto
59638.2 52728.5 lineto
stroke
newpath
59446.6 51962.3 moveto
59446.6 51579.3 lineto
stroke
newpath
59255.1 51770.8 moveto
59638.2 51770.8 lineto
stroke
newpath
59446.6 51004.7 moveto
59446.6 50621.6 lineto
stroke
newpath
59255.1 50813.1 moveto
59638.2 50813.1 lineto
stroke
newpath
59446.6 50047 moveto
59446.6 49663.9 lineto
stroke
newpath
59255.1 49855.5 moveto
59638.2 49855.5 lineto
stroke
newpath
59446.6 49089.3 moveto
59446.6 48706.2 lineto
stroke
newpath
59255.1 48897.8 moveto
59638.2 48897.8 lineto
stroke
newpath
59446.6 48131.6 moveto
59446.6 47748.6 lineto
stroke
newpath
59255.1 47940.1 moveto
59638.2 47940.1 lineto
stroke
newpath
59446.6 47174 moveto
59446.6 46790.9 lineto
stroke
newpath
59255.1 46982.4 moveto
59638.2 46982.4 lineto
stroke
newpath
59446.6 46216.3 moveto
59446.6 45833.2 lineto
stroke
newpath
59255.1 46024.8 moveto
59638.2 46024.8 lineto
stroke
newpath
59446.6 45258.6 moveto
59446.6 44875.5 lineto
stroke
newpath
59255.1 45067.1 moveto
59638.2 45067.1 lineto
stroke
newpath
59446.6 44300.9 moveto
59446.6 43917.9 lineto
stroke
newpath
59255.1 44109.4 moveto
59638.2 44109.4 lineto
stroke
newpath
59446.6 43343.3 moveto
59446.6 42960.2 lineto
stroke
newpath
59255.1 43151.7 moveto
59638.2 43151.7 lineto
stroke
newpath
59446.6 42385.6 moveto
59446.6 42002.5 lineto
stroke
newpath
59255.1 42194 moveto
59638.2 42194 lineto
stroke
newpath
59446.6 41427.9 moveto
59446.6 41044.8 lineto
stroke
newpath
59255.1 41236.4 moveto
59638.2 41236.4 lineto
stroke
newpath
59446.6 40470.2 moveto
59446.6 40087.2 lineto
stroke
newpath
59255.1 40278.7 moveto
59638.2 40278.7 lineto
stroke
newpath
59446.6 39512.6 moveto
59446.6 39129.5 lineto
stroke
newpath
59255.1 39321 moveto
59638.2 39321 lineto
stroke
newpath
59446.6 38554.9 moveto
59446.6 38171.8 lineto
stroke
newpath
59255.1 38363.3 moveto
59638.2 38363.3 lineto
stroke
newpath
59446.6 37597.2 moveto
59446.6 37214.1 lineto
stroke
newpath
59255.1 37405.7 moveto
59638.2 37405.7 lineto
stroke
75.4076 setlinewidth
0 0 0 setrgbcolor
0 0 0 setrgbcolor
newpath
53466.1 33869.9 moveto
53466.1 34624 lineto
stroke
newpath
53466.1 34624 moveto
53645.7 34624 lineto
stroke
newpath
53645.7 34624 moveto
53753.4 34588.1 lineto
stroke
newpath
53753.4 34588.1 moveto
53825.2 34516.2 lineto
stroke
newpath
53825.2 34516.2 moveto
53861.1 34444.4 lineto
stroke
newpath
53861.1 34444.4 moveto
53897 34300.8 lineto
stroke
newpath
53897 34300.8 moveto
53897 34193.1 lineto
stroke
newpath
53897 34193.1 moveto
53861.1 34049.4 lineto
stroke
newpath
53861.1 34049.4 moveto
53825.2 33977.6 lineto
stroke
newpath
53825.2 33977.6 moveto
53753.4 33905.8 lineto
stroke
newpath
53753.4 33905.8 moveto
53645.7 33869.9 lineto
stroke
newpath
53645.7 33869.9 moveto
53466.1 33869.9 lineto
stroke
newpath
54220.2 33869.9 moveto
54220.2 34372.6 lineto
stroke
newpath
54220.2 34229 moveto
54256.1 34300.8 lineto
stroke
newpath
54256.1 34300.8 moveto
54292 34336.7 lineto
stroke
newpath
54292 34336.7 moveto
54363.8 34372.6 lineto
stroke
newpath
54363.8 34372.6 moveto
54435.6 34372.6 lineto
stroke
newpath
54687 33869.9 moveto
54687 34372.6 lineto
stroke
newpath
54687 34624 moveto
54651.1 34588.1 lineto
stroke
newpath
54651.1 34588.1 moveto
54687 34552.2 lineto
stroke
newpath
54687 34552.2 moveto
54722.9 34588.1 lineto
stroke
newpath
54722.9 34588.1 moveto
54687 34624 lineto
stroke
newpath
54687 34624 moveto
54687 34552.2 lineto
stroke
newpath
55153.8 33869.9 moveto
55082 33905.8 lineto
stroke
newpath
55082 33905.8 moveto
55046.1 33977.6 lineto
stroke
newpath
55046.1 33977.6 moveto
55046.1 34624 lineto
stroke
newpath
55548.8 33869.9 moveto
55477 33905.8 lineto
stroke
newpath
55477 33905.8 moveto
55441.1 33977.6 lineto
stroke
newpath
55441.1 33977.6 moveto
55441.1 34624 lineto
stroke
newpath
56288.5 33869.9 moveto
56288.5 34624 lineto
stroke
newpath
56288.5 34624 moveto
56539.9 34085.3 lineto
stroke
newpath
56539.9 34085.3 moveto
56791.2 34624 lineto
stroke
newpath
56791.2 34624 moveto
56791.2 33869.9 lineto
stroke
newpath
57473.5 33869.9 moveto
57473.5 34264.9 lineto
stroke
newpath
57473.5 34264.9 moveto
57437.6 34336.7 lineto
stroke
newpath
57437.6 34336.7 moveto
57365.8 34372.6 lineto
stroke
newpath
57365.8 34372.6 moveto
57222.1 34372.6 lineto
stroke
newpath
57222.1 34372.6 moveto
57150.3 34336.7 lineto
stroke
newpath
57473.5 33905.8 moveto
57401.7 33869.9 lineto
stroke
newpath
57401.7 33869.9 moveto
57222.1 33869.9 lineto
stroke
newpath
57222.1 33869.9 moveto
57150.3 33905.8 lineto
stroke
newpath
57150.3 33905.8 moveto
57114.4 33977.6 lineto
stroke
newpath
57114.4 33977.6 moveto
57114.4 34049.4 lineto
stroke
newpath
57114.4 34049.4 moveto
57150.3 34121.2 lineto
stroke
newpath
57150.3 34121.2 moveto
57222.1 34157.2 lineto
stroke
newpath
57222.1 34157.2 moveto
57401.7 34157.2 lineto
stroke
newpath
57401.7 34157.2 moveto
57473.5 34193.1 lineto
stroke
newpath
57832.6 34372.6 moveto
57832.6 33618.5 lineto
stroke
newpath
57832.6 34336.7 moveto
57904.4 34372.6 lineto
stroke
newpath
57904.4 34372.6 moveto
58048 34372.6 lineto
stroke
newpath
58048 34372.6 moveto
58119.8 34336.7 lineto
stroke
newpath
58119.8 34336.7 moveto
58155.7 34300.8 lineto
stroke
newpath
58155.7 34300.8 moveto
58191.7 34229 lineto
stroke
newpath
58191.7 34229 moveto
58191.7 34013.5 lineto
stroke
newpath
58191.7 34013.5 moveto
58155.7 33941.7 lineto
stroke
newpath
58155.7 33941.7 moveto
58119.8 33905.8 lineto
stroke
newpath
58119.8 33905.8 moveto
58048 33869.9 lineto
stroke
newpath
58048 33869.9 moveto
57904.4 33869.9 lineto
stroke
newpath
57904.4 33869.9 moveto
57832.6 33905.8 lineto
stroke
newpath
58514.8 33941.7 moveto
58550.7 33905.8 lineto
stroke
newpath
58550.7 33905.8 moveto
58514.8 33869.9 lineto
stroke
newpath
58514.8 33869.9 moveto
58478.9 33905.8 lineto
stroke
newpath
58478.9 33905.8 moveto
58514.8 33941.7 lineto
stroke
newpath
58514.8 33941.7 moveto
58514.8 33869.9 lineto
stroke
newpath
58514.8 34336.7 moveto
58550.7 34300.8 lineto
stroke
newpath
58550.7 34300.8 moveto
58514.8 34264.9 lineto
stroke
newpath
58514.8 34264.9 moveto
58478.9 34300.8 lineto
stroke
newpath
58478.9 34300.8 moveto
58514.8 34336.7 lineto
stroke
newpath
58514.8 34336.7 moveto
58514.8 34264.9 lineto
stroke
15.0815 setlinewidth
newpath
52381.7 32702.9 moveto
52532.5 32552.1 lineto
stroke
newpath
52532.5 32702.9 moveto
52381.7 32552.1 lineto
stroke
75.4076 setlinewidth
0 0 0 setrgbcolor
0 0 0 setrgbcolor
newpath
53609.7 33040.4 moveto
53681.6 33040.4 lineto
stroke
newpath
53681.6 33040.4 moveto
53753.4 33004.5 lineto
stroke
newpath
53753.4 33004.5 moveto
53789.3 32968.6 lineto
stroke
newpath
53789.3 32968.6 moveto
53825.2 32896.8 lineto
stroke
newpath
53825.2 32896.8 moveto
53861.1 32753.1 lineto
stroke
newpath
53861.1 32753.1 moveto
53861.1 32573.6 lineto
stroke
newpath
53861.1 32573.6 moveto
53825.2 32430 lineto
stroke
newpath
53825.2 32430 moveto
53789.3 32358.1 lineto
stroke
newpath
53789.3 32358.1 moveto
53753.4 32322.2 lineto
stroke
newpath
53753.4 32322.2 moveto
53681.6 32286.3 lineto
stroke
newpath
53681.6 32286.3 moveto
53609.7 32286.3 lineto
stroke
newpath
53609.7 32286.3 moveto
53537.9 32322.2 lineto
stroke
newpath
53537.9 32322.2 moveto
53502 32358.1 lineto
stroke
newpath
53502 32358.1 moveto
53466.1 32430 lineto
stroke
newpath
53466.1 32430 moveto
53430.2 32573.6 lineto
stroke
newpath
53430.2 32573.6 moveto
53430.2 32753.1 lineto
stroke
newpath
53430.2 32753.1 moveto
53466.1 32896.8 lineto
stroke
newpath
53466.1 32896.8 moveto
53502 32968.6 lineto
stroke
newpath
53502 32968.6 moveto
53537.9 33004.5 lineto
stroke
newpath
53537.9 33004.5 moveto
53609.7 33040.4 lineto
stroke
newpath
54184.3 32358.1 moveto
54220.2 32322.2 lineto
stroke
newpath
54220.2 32322.2 moveto
54184.3 32286.3 lineto
stroke
newpath
54184.3 32286.3 moveto
54148.4 32322.2 lineto
stroke
newpath
54148.4 32322.2 moveto
54184.3 32358.1 lineto
stroke
newpath
54184.3 32358.1 moveto
54184.3 32286.3 lineto
stroke
newpath
54866.5 32789 moveto
54866.5 32286.3 lineto
stroke
newpath
54687 33076.3 moveto
54507.5 32537.7 lineto
stroke
newpath
54507.5 32537.7 moveto
54974.3 32537.7 lineto
stroke
newpath
55405.2 33040.4 moveto
55477 33040.4 lineto
stroke
newpath
55477 33040.4 moveto
55548.8 33004.5 lineto
stroke
newpath
55548.8 33004.5 moveto
55584.7 32968.6 lineto
stroke
newpath
55584.7 32968.6 moveto
55620.6 32896.8 lineto
stroke
newpath
55620.6 32896.8 moveto
55656.5 32753.1 lineto
stroke
newpath
55656.5 32753.1 moveto
55656.5 32573.6 lineto
stroke
newpath
55656.5 32573.6 moveto
55620.6 32430 lineto
stroke
newpath
55620.6 32430 moveto
55584.7 32358.1 lineto
stroke
newpath
55584.7 32358.1 moveto
55548.8 32322.2 lineto
stroke
newpath
55548.8 32322.2 moveto
55477 32286.3 lineto
stroke
newpath
55477 32286.3 moveto
55405.2 32286.3 lineto
stroke
newpath
55405.2 32286.3 moveto
55333.3 32322.2 lineto
stroke
newpath
55333.3 32322.2 moveto
55297.4 32358.1 lineto
stroke
newpath
55297.4 32358.1 moveto
55261.5 32430 lineto
stroke
newpath
55261.5 32430 moveto
55225.6 32573.6 lineto
stroke
newpath
55225.6 32573.6 moveto
55225.6 32753.1 lineto
stroke
newpath
55225.6 32753.1 moveto
55261.5 32896.8 lineto
stroke
newpath
55261.5 32896.8 moveto
55297.4 32968.6 lineto
stroke
newpath
55297.4 32968.6 moveto
55333.3 33004.5 lineto
stroke
newpath
55333.3 33004.5 moveto
55405.2 33040.4 lineto
stroke
newpath
56123.3 33040.4 moveto
56195.1 33040.4 lineto
stroke
newpath
56195.1 33040.4 moveto
56267 33004.5 lineto
stroke
newpath
56267 33004.5 moveto
56302.9 32968.6 lineto
stroke
newpath
56302.9 32968.6 moveto
56338.8 32896.8 lineto
stroke
newpath
56338.8 32896.8 moveto
56374.7 32753.1 lineto
stroke
newpath
56374.7 32753.1 moveto
56374.7 32573.6 lineto
stroke
newpath
56374.7 32573.6 moveto
56338.8 32430 lineto
stroke
newpath
56338.8 32430 moveto
56302.9 32358.1 lineto
stroke
newpath
56302.9 32358.1 moveto
56267 32322.2 lineto
stroke
newpath
56267 32322.2 moveto
56195.1 32286.3 lineto
stroke
newpath
56195.1 32286.3 moveto
56123.3 32286.3 lineto
stroke
newpath
56123.3 32286.3 moveto
56051.5 32322.2 lineto
stroke
newpath
56051.5 32322.2 moveto
56015.6 32358.1 lineto
stroke
newpath
56015.6 32358.1 moveto
55979.7 32430 lineto
stroke
newpath
55979.7 32430 moveto
55943.8 32573.6 lineto
stroke
newpath
55943.8 32573.6 moveto
55943.8 32753.1 lineto
stroke
newpath
55943.8 32753.1 moveto
55979.7 32896.8 lineto
stroke
newpath
55979.7 32896.8 moveto
56015.6 32968.6 lineto
stroke
newpath
56015.6 32968.6 moveto
56051.5 33004.5 lineto
stroke
newpath
56051.5 33004.5 moveto
56123.3 33040.4 lineto
stroke
newpath
56697.9 32286.3 moveto
56697.9 32789 lineto
stroke
newpath
56697.9 32717.2 moveto
56733.8 32753.1 lineto
stroke
newpath
56733.8 32753.1 moveto
56805.6 32789 lineto
stroke
newpath
56805.6 32789 moveto
56913.3 32789 lineto
stroke
newpath
56913.3 32789 moveto
56985.1 32753.1 lineto
stroke
newpath
56985.1 32753.1 moveto
57021 32681.3 lineto
stroke
newpath
57021 32681.3 moveto
57021 32286.3 lineto
stroke
newpath
57021 32681.3 moveto
57056.9 32753.1 lineto
stroke
newpath
57056.9 32753.1 moveto
57128.8 32789 lineto
stroke
newpath
57128.8 32789 moveto
57236.5 32789 lineto
stroke
newpath
57236.5 32789 moveto
57308.3 32753.1 lineto
stroke
newpath
57308.3 32753.1 moveto
57344.2 32681.3 lineto
stroke
newpath
57344.2 32681.3 moveto
57344.2 32286.3 lineto
stroke
newpath
57703.3 32286.3 moveto
57703.3 32789 lineto
stroke
newpath
57703.3 32717.2 moveto
57739.2 32753.1 lineto
stroke
newpath
57739.2 32753.1 moveto
57811 32789 lineto
stroke
newpath
57811 32789 moveto
57918.8 32789 lineto
stroke
newpath
57918.8 32789 moveto
57990.6 32753.1 lineto
stroke
newpath
57990.6 32753.1 moveto
58026.5 32681.3 lineto
stroke
newpath
58026.5 32681.3 moveto
58026.5 32286.3 lineto
stroke
newpath
58026.5 32681.3 moveto
58062.4 32753.1 lineto
stroke
newpath
58062.4 32753.1 moveto
58134.2 32789 lineto
stroke
newpath
58134.2 32789 moveto
58241.9 32789 lineto
stroke
newpath
58241.9 32789 moveto
58313.7 32753.1 lineto
stroke
newpath
58313.7 32753.1 moveto
58349.7 32681.3 lineto
stroke
newpath
58349.7 32681.3 moveto
58349.7 32286.3 lineto
stroke
newpath
59699.8 33076.3 moveto
59053.5 32106.8 lineto
stroke
newpath
60547.2 33040.4 moveto
60619.1 33040.4 lineto
stroke
newpath
60619.1 33040.4 moveto
60690.9 33004.5 lineto
stroke
newpath
60690.9 33004.5 moveto
60726.8 32968.6 lineto
stroke
newpath
60726.8 32968.6 moveto
60762.7 32896.8 lineto
stroke
newpath
60762.7 32896.8 moveto
60798.6 32753.1 lineto
stroke
newpath
60798.6 32753.1 moveto
60798.6 32573.6 lineto
stroke
newpath
60798.6 32573.6 moveto
60762.7 32430 lineto
stroke
newpath
60762.7 32430 moveto
60726.8 32358.1 lineto
stroke
newpath
60726.8 32358.1 moveto
60690.9 32322.2 lineto
stroke
newpath
60690.9 32322.2 moveto
60619.1 32286.3 lineto
stroke
newpath
60619.1 32286.3 moveto
60547.2 32286.3 lineto
stroke
newpath
60547.2 32286.3 moveto
60475.4 32322.2 lineto
stroke
newpath
60475.4 32322.2 moveto
60439.5 32358.1 lineto
stroke
newpath
60439.5 32358.1 moveto
60403.6 32430 lineto
stroke
newpath
60403.6 32430 moveto
60367.7 32573.6 lineto
stroke
newpath
60367.7 32573.6 moveto
60367.7 32753.1 lineto
stroke
newpath
60367.7 32753.1 moveto
60403.6 32896.8 lineto
stroke
newpath
60403.6 32896.8 moveto
60439.5 32968.6 lineto
stroke
newpath
60439.5 32968.6 moveto
60475.4 33004.5 lineto
stroke
newpath
60475.4 33004.5 moveto
60547.2 33040.4 lineto
stroke
newpath
61121.8 32358.1 moveto
61157.7 32322.2 lineto
stroke
newpath
61157.7 32322.2 moveto
61121.8 32286.3 lineto
stroke
newpath
61121.8 32286.3 moveto
61085.9 32322.2 lineto
stroke
newpath
61085.9 32322.2 moveto
61121.8 32358.1 lineto
stroke
newpath
61121.8 32358.1 moveto
61121.8 32286.3 lineto
stroke
newpath
61624.5 33040.4 moveto
61696.3 33040.4 lineto
stroke
newpath
61696.3 33040.4 moveto
61768.1 33004.5 lineto
stroke
newpath
61768.1 33004.5 moveto
61804 32968.6 lineto
stroke
newpath
61804 32968.6 moveto
61839.9 32896.8 lineto
stroke
newpath
61839.9 32896.8 moveto
61875.9 32753.1 lineto
stroke
newpath
61875.9 32753.1 moveto
61875.9 32573.6 lineto
stroke
newpath
61875.9 32573.6 moveto
61839.9 32430 lineto
stroke
newpath
61839.9 32430 moveto
61804 32358.1 lineto
stroke
newpath
61804 32358.1 moveto
61768.1 32322.2 lineto
stroke
newpath
61768.1 32322.2 moveto
61696.3 32286.3 lineto
stroke
newpath
61696.3 32286.3 moveto
61624.5 32286.3 lineto
stroke
newpath
61624.5 32286.3 moveto
61552.7 32322.2 lineto
stroke
newpath
61552.7 32322.2 moveto
61516.8 32358.1 lineto
stroke
newpath
61516.8 32358.1 moveto
61480.9 32430 lineto
stroke
newpath
61480.9 32430 moveto
61445 32573.6 lineto
stroke
newpath
61445 32573.6 moveto
61445 32753.1 lineto
stroke
newpath
61445 32753.1 moveto
61480.9 32896.8 lineto
stroke
newpath
61480.9 32896.8 moveto
61516.8 32968.6 lineto
stroke
newpath
61516.8 32968.6 moveto
61552.7 33004.5 lineto
stroke
newpath
61552.7 33004.5 moveto
61624.5 33040.4 lineto
stroke
newpath
62594 32286.3 moveto
62163.1 32286.3 lineto
stroke
newpath
62378.6 32286.3 moveto
62378.6 33040.4 lineto
stroke
newpath
62378.6 33040.4 moveto
62306.8 32932.7 lineto
stroke
newpath
62306.8 32932.7 moveto
62234.9 32860.9 lineto
stroke
newpath
62234.9 32860.9 moveto
62163.1 32825 lineto
stroke
newpath
63276.3 33040.4 moveto
62917.2 33040.4 lineto
stroke
newpath
62917.2 33040.4 moveto
62881.3 32681.3 lineto
stroke
newpath
62881.3 32681.3 moveto
62917.2 32717.2 lineto
stroke
newpath
62917.2 32717.2 moveto
62989 32753.1 lineto
stroke
newpath
62989 32753.1 moveto
63168.6 32753.1 lineto
stroke
newpath
63168.6 32753.1 moveto
63240.4 32717.2 lineto
stroke
newpath
63240.4 32717.2 moveto
63276.3 32681.3 lineto
stroke
newpath
63276.3 32681.3 moveto
63312.2 32609.5 lineto
stroke
newpath
63312.2 32609.5 moveto
63312.2 32430 lineto
stroke
newpath
63312.2 32430 moveto
63276.3 32358.1 lineto
stroke
newpath
63276.3 32358.1 moveto
63240.4 32322.2 lineto
stroke
newpath
63240.4 32322.2 moveto
63168.6 32286.3 lineto
stroke
newpath
63168.6 32286.3 moveto
62989 32286.3 lineto
stroke
newpath
62989 32286.3 moveto
62917.2 32322.2 lineto
stroke
newpath
62917.2 32322.2 moveto
62881.3 32358.1 lineto
stroke
newpath
63563.5 33040.4 moveto
64066.3 33040.4 lineto
stroke
newpath
64066.3 33040.4 moveto
63743.1 32286.3 lineto
stroke
newpath
64317.6 33040.4 moveto
64317.6 32896.8 lineto
stroke
newpath
64604.9 33040.4 moveto
64604.9 32896.8 lineto
stroke
newpath
65596 31999.1 moveto
65560.1 32035 lineto
stroke
newpath
65560.1 32035 moveto
65488.2 32142.7 lineto
stroke
newpath
65488.2 32142.7 moveto
65452.3 32214.5 lineto
stroke
newpath
65452.3 32214.5 moveto
65416.4 32322.2 lineto
stroke
newpath
65416.4 32322.2 moveto
65380.5 32501.8 lineto
stroke
newpath
65380.5 32501.8 moveto
65380.5 32645.4 lineto
stroke
newpath
65380.5 32645.4 moveto
65416.4 32825 lineto
stroke
newpath
65416.4 32825 moveto
65452.3 32932.7 lineto
stroke
newpath
65452.3 32932.7 moveto
65488.2 33004.5 lineto
stroke
newpath
65488.2 33004.5 moveto
65560.1 33112.2 lineto
stroke
newpath
65560.1 33112.2 moveto
65596 33148.1 lineto
stroke
newpath
66206.4 33040.4 moveto
66062.8 33040.4 lineto
stroke
newpath
66062.8 33040.4 moveto
65991 33004.5 lineto
stroke
newpath
65991 33004.5 moveto
65955 32968.6 lineto
stroke
newpath
65955 32968.6 moveto
65883.2 32860.9 lineto
stroke
newpath
65883.2 32860.9 moveto
65847.3 32717.2 lineto
stroke
newpath
65847.3 32717.2 moveto
65847.3 32430 lineto
stroke
newpath
65847.3 32430 moveto
65883.2 32358.1 lineto
stroke
newpath
65883.2 32358.1 moveto
65919.1 32322.2 lineto
stroke
newpath
65919.1 32322.2 moveto
65991 32286.3 lineto
stroke
newpath
65991 32286.3 moveto
66134.6 32286.3 lineto
stroke
newpath
66134.6 32286.3 moveto
66206.4 32322.2 lineto
stroke
newpath
66206.4 32322.2 moveto
66242.3 32358.1 lineto
stroke
newpath
66242.3 32358.1 moveto
66278.2 32430 lineto
stroke
newpath
66278.2 32430 moveto
66278.2 32609.5 lineto
stroke
newpath
66278.2 32609.5 moveto
66242.3 32681.3 lineto
stroke
newpath
66242.3 32681.3 moveto
66206.4 32717.2 lineto
stroke
newpath
66206.4 32717.2 moveto
66134.6 32753.1 lineto
stroke
newpath
66134.6 32753.1 moveto
65991 32753.1 lineto
stroke
newpath
65991 32753.1 moveto
65919.1 32717.2 lineto
stroke
newpath
65919.1 32717.2 moveto
65883.2 32681.3 lineto
stroke
newpath
65883.2 32681.3 moveto
65847.3 32609.5 lineto
stroke
newpath
66924.6 33040.4 moveto
66780.9 33040.4 lineto
stroke
newpath
66780.9 33040.4 moveto
66709.1 33004.5 lineto
stroke
newpath
66709.1 33004.5 moveto
66673.2 32968.6 lineto
stroke
newpath
66673.2 32968.6 moveto
66601.4 32860.9 lineto
stroke
newpath
66601.4 32860.9 moveto
66565.5 32717.2 lineto
stroke
newpath
66565.5 32717.2 moveto
66565.5 32430 lineto
stroke
newpath
66565.5 32430 moveto
66601.4 32358.1 lineto
stroke
newpath
66601.4 32358.1 moveto
66637.3 32322.2 lineto
stroke
newpath
66637.3 32322.2 moveto
66709.1 32286.3 lineto
stroke
newpath
66709.1 32286.3 moveto
66852.8 32286.3 lineto
stroke
newpath
66852.8 32286.3 moveto
66924.6 32322.2 lineto
stroke
newpath
66924.6 32322.2 moveto
66960.5 32358.1 lineto
stroke
newpath
66960.5 32358.1 moveto
66996.4 32430 lineto
stroke
newpath
66996.4 32430 moveto
66996.4 32609.5 lineto
stroke
newpath
66996.4 32609.5 moveto
66960.5 32681.3 lineto
stroke
newpath
66960.5 32681.3 moveto
66924.6 32717.2 lineto
stroke
newpath
66924.6 32717.2 moveto
66852.8 32753.1 lineto
stroke
newpath
66852.8 32753.1 moveto
66709.1 32753.1 lineto
stroke
newpath
66709.1 32753.1 moveto
66637.3 32717.2 lineto
stroke
newpath
66637.3 32717.2 moveto
66601.4 32681.3 lineto
stroke
newpath
66601.4 32681.3 moveto
66565.5 32609.5 lineto
stroke
newpath
67772 32286.3 moveto
67772 33040.4 lineto
stroke
newpath
68095.2 32286.3 moveto
68095.2 32681.3 lineto
stroke
newpath
68095.2 32681.3 moveto
68059.3 32753.1 lineto
stroke
newpath
68059.3 32753.1 moveto
67987.5 32789 lineto
stroke
newpath
67987.5 32789 moveto
67879.7 32789 lineto
stroke
newpath
67879.7 32789 moveto
67807.9 32753.1 lineto
stroke
newpath
67807.9 32753.1 moveto
67772 32717.2 lineto
stroke
newpath
68562 32286.3 moveto
68490.2 32322.2 lineto
stroke
newpath
68490.2 32322.2 moveto
68454.3 32358.1 lineto
stroke
newpath
68454.3 32358.1 moveto
68418.4 32430 lineto
stroke
newpath
68418.4 32430 moveto
68418.4 32645.4 lineto
stroke
newpath
68418.4 32645.4 moveto
68454.3 32717.2 lineto
stroke
newpath
68454.3 32717.2 moveto
68490.2 32753.1 lineto
stroke
newpath
68490.2 32753.1 moveto
68562 32789 lineto
stroke
newpath
68562 32789 moveto
68669.7 32789 lineto
stroke
newpath
68669.7 32789 moveto
68741.5 32753.1 lineto
stroke
newpath
68741.5 32753.1 moveto
68777.4 32717.2 lineto
stroke
newpath
68777.4 32717.2 moveto
68813.4 32645.4 lineto
stroke
newpath
68813.4 32645.4 moveto
68813.4 32430 lineto
stroke
newpath
68813.4 32430 moveto
68777.4 32358.1 lineto
stroke
newpath
68777.4 32358.1 moveto
68741.5 32322.2 lineto
stroke
newpath
68741.5 32322.2 moveto
68669.7 32286.3 lineto
stroke
newpath
68669.7 32286.3 moveto
68562 32286.3 lineto
stroke
newpath
69244.3 32286.3 moveto
69172.4 32322.2 lineto
stroke
newpath
69172.4 32322.2 moveto
69136.5 32394.1 lineto
stroke
newpath
69136.5 32394.1 moveto
69136.5 33040.4 lineto
stroke
newpath
69818.8 32322.2 moveto
69747 32286.3 lineto
stroke
newpath
69747 32286.3 moveto
69603.3 32286.3 lineto
stroke
newpath
69603.3 32286.3 moveto
69531.5 32322.2 lineto
stroke
newpath
69531.5 32322.2 moveto
69495.6 32394.1 lineto
stroke
newpath
69495.6 32394.1 moveto
69495.6 32681.3 lineto
stroke
newpath
69495.6 32681.3 moveto
69531.5 32753.1 lineto
stroke
newpath
69531.5 32753.1 moveto
69603.3 32789 lineto
stroke
newpath
69603.3 32789 moveto
69747 32789 lineto
stroke
newpath
69747 32789 moveto
69818.8 32753.1 lineto
stroke
newpath
69818.8 32753.1 moveto
69854.7 32681.3 lineto
stroke
newpath
69854.7 32681.3 moveto
69854.7 32609.5 lineto
stroke
newpath
69854.7 32609.5 moveto
69495.6 32537.7 lineto
stroke
newpath
70142 32322.2 moveto
70213.8 32286.3 lineto
stroke
newpath
70213.8 32286.3 moveto
70357.4 32286.3 lineto
stroke
newpath
70357.4 32286.3 moveto
70429.2 32322.2 lineto
stroke
newpath
70429.2 32322.2 moveto
70465.1 32394.1 lineto
stroke
newpath
70465.1 32394.1 moveto
70465.1 32430 lineto
stroke
newpath
70465.1 32430 moveto
70429.2 32501.8 lineto
stroke
newpath
70429.2 32501.8 moveto
70357.4 32537.7 lineto
stroke
newpath
70357.4 32537.7 moveto
70249.7 32537.7 lineto
stroke
newpath
70249.7 32537.7 moveto
70177.9 32573.6 lineto
stroke
newpath
70177.9 32573.6 moveto
70142 32645.4 lineto
stroke
newpath
70142 32645.4 moveto
70142 32681.3 lineto
stroke
newpath
70142 32681.3 moveto
70177.9 32753.1 lineto
stroke
newpath
70177.9 32753.1 moveto
70249.7 32789 lineto
stroke
newpath
70249.7 32789 moveto
70357.4 32789 lineto
stroke
newpath
70357.4 32789 moveto
70429.2 32753.1 lineto
stroke
newpath
70716.5 31999.1 moveto
70752.4 32035 lineto
stroke
newpath
70752.4 32035 moveto
70824.2 32142.7 lineto
stroke
newpath
70824.2 32142.7 moveto
70860.1 32214.5 lineto
stroke
newpath
70860.1 32214.5 moveto
70896 32322.2 lineto
stroke
newpath
70896 32322.2 moveto
70931.9 32501.8 lineto
stroke
newpath
70931.9 32501.8 moveto
70931.9 32645.4 lineto
stroke
newpath
70931.9 32645.4 moveto
70896 32825 lineto
stroke
newpath
70896 32825 moveto
70860.1 32932.7 lineto
stroke
newpath
70860.1 32932.7 moveto
70824.2 33004.5 lineto
stroke
newpath
70824.2 33004.5 moveto
70752.4 33112.2 lineto
stroke
newpath
70752.4 33112.2 moveto
70716.5 33148.1 lineto
stroke
30.163 setlinewidth
52381.7 31632.1 150.815 cir0
75.4076 setlinewidth
0 0 0 setrgbcolor
0 0 0 setrgbcolor
newpath
53609.7 32045 moveto
53681.6 32045 lineto
stroke
newpath
53681.6 32045 moveto
53753.4 32009.1 lineto
stroke
newpath
53753.4 32009.1 moveto
53789.3 31973.2 lineto
stroke
newpath
53789.3 31973.2 moveto
53825.2 31901.4 lineto
stroke
newpath
53825.2 31901.4 moveto
53861.1 31757.8 lineto
stroke
newpath
53861.1 31757.8 moveto
53861.1 31578.2 lineto
stroke
newpath
53861.1 31578.2 moveto
53825.2 31434.6 lineto
stroke
newpath
53825.2 31434.6 moveto
53789.3 31362.8 lineto
stroke
newpath
53789.3 31362.8 moveto
53753.4 31326.9 lineto
stroke
newpath
53753.4 31326.9 moveto
53681.6 31291 lineto
stroke
newpath
53681.6 31291 moveto
53609.7 31291 lineto
stroke
newpath
53609.7 31291 moveto
53537.9 31326.9 lineto
stroke
newpath
53537.9 31326.9 moveto
53502 31362.8 lineto
stroke
newpath
53502 31362.8 moveto
53466.1 31434.6 lineto
stroke
newpath
53466.1 31434.6 moveto
53430.2 31578.2 lineto
stroke
newpath
53430.2 31578.2 moveto
53430.2 31757.8 lineto
stroke
newpath
53430.2 31757.8 moveto
53466.1 31901.4 lineto
stroke
newpath
53466.1 31901.4 moveto
53502 31973.2 lineto
stroke
newpath
53502 31973.2 moveto
53537.9 32009.1 lineto
stroke
newpath
53537.9 32009.1 moveto
53609.7 32045 lineto
stroke
newpath
54184.3 31362.8 moveto
54220.2 31326.9 lineto
stroke
newpath
54220.2 31326.9 moveto
54184.3 31291 lineto
stroke
newpath
54184.3 31291 moveto
54148.4 31326.9 lineto
stroke
newpath
54148.4 31326.9 moveto
54184.3 31362.8 lineto
stroke
newpath
54184.3 31362.8 moveto
54184.3 31291 lineto
stroke
newpath
54651.1 31721.9 moveto
54579.3 31757.8 lineto
stroke
newpath
54579.3 31757.8 moveto
54543.4 31793.7 lineto
stroke
newpath
54543.4 31793.7 moveto
54507.5 31865.5 lineto
stroke
newpath
54507.5 31865.5 moveto
54507.5 31901.4 lineto
stroke
newpath
54507.5 31901.4 moveto
54543.4 31973.2 lineto
stroke
newpath
54543.4 31973.2 moveto
54579.3 32009.1 lineto
stroke
newpath
54579.3 32009.1 moveto
54651.1 32045 lineto
stroke
newpath
54651.1 32045 moveto
54794.7 32045 lineto
stroke
newpath
54794.7 32045 moveto
54866.5 32009.1 lineto
stroke
newpath
54866.5 32009.1 moveto
54902.4 31973.2 lineto
stroke
newpath
54902.4 31973.2 moveto
54938.4 31901.4 lineto
stroke
newpath
54938.4 31901.4 moveto
54938.4 31865.5 lineto
stroke
newpath
54938.4 31865.5 moveto
54902.4 31793.7 lineto
stroke
newpath
54902.4 31793.7 moveto
54866.5 31757.8 lineto
stroke
newpath
54866.5 31757.8 moveto
54794.7 31721.9 lineto
stroke
newpath
54794.7 31721.9 moveto
54651.1 31721.9 lineto
stroke
newpath
54651.1 31721.9 moveto
54579.3 31685.9 lineto
stroke
newpath
54579.3 31685.9 moveto
54543.4 31650 lineto
stroke
newpath
54543.4 31650 moveto
54507.5 31578.2 lineto
stroke
newpath
54507.5 31578.2 moveto
54507.5 31434.6 lineto
stroke
newpath
54507.5 31434.6 moveto
54543.4 31362.8 lineto
stroke
newpath
54543.4 31362.8 moveto
54579.3 31326.9 lineto
stroke
newpath
54579.3 31326.9 moveto
54651.1 31291 lineto
stroke
newpath
54651.1 31291 moveto
54794.7 31291 lineto
stroke
newpath
54794.7 31291 moveto
54866.5 31326.9 lineto
stroke
newpath
54866.5 31326.9 moveto
54902.4 31362.8 lineto
stroke
newpath
54902.4 31362.8 moveto
54938.4 31434.6 lineto
stroke
newpath
54938.4 31434.6 moveto
54938.4 31578.2 lineto
stroke
newpath
54938.4 31578.2 moveto
54902.4 31650 lineto
stroke
newpath
54902.4 31650 moveto
54866.5 31685.9 lineto
stroke
newpath
54866.5 31685.9 moveto
54794.7 31721.9 lineto
stroke
newpath
55405.2 32045 moveto
55477 32045 lineto
stroke
newpath
55477 32045 moveto
55548.8 32009.1 lineto
stroke
newpath
55548.8 32009.1 moveto
55584.7 31973.2 lineto
stroke
newpath
55584.7 31973.2 moveto
55620.6 31901.4 lineto
stroke
newpath
55620.6 31901.4 moveto
55656.5 31757.8 lineto
stroke
newpath
55656.5 31757.8 moveto
55656.5 31578.2 lineto
stroke
newpath
55656.5 31578.2 moveto
55620.6 31434.6 lineto
stroke
newpath
55620.6 31434.6 moveto
55584.7 31362.8 lineto
stroke
newpath
55584.7 31362.8 moveto
55548.8 31326.9 lineto
stroke
newpath
55548.8 31326.9 moveto
55477 31291 lineto
stroke
newpath
55477 31291 moveto
55405.2 31291 lineto
stroke
newpath
55405.2 31291 moveto
55333.3 31326.9 lineto
stroke
newpath
55333.3 31326.9 moveto
55297.4 31362.8 lineto
stroke
newpath
55297.4 31362.8 moveto
55261.5 31434.6 lineto
stroke
newpath
55261.5 31434.6 moveto
55225.6 31578.2 lineto
stroke
newpath
55225.6 31578.2 moveto
55225.6 31757.8 lineto
stroke
newpath
55225.6 31757.8 moveto
55261.5 31901.4 lineto
stroke
newpath
55261.5 31901.4 moveto
55297.4 31973.2 lineto
stroke
newpath
55297.4 31973.2 moveto
55333.3 32009.1 lineto
stroke
newpath
55333.3 32009.1 moveto
55405.2 32045 lineto
stroke
newpath
56123.3 32045 moveto
56195.1 32045 lineto
stroke
newpath
56195.1 32045 moveto
56267 32009.1 lineto
stroke
newpath
56267 32009.1 moveto
56302.9 31973.2 lineto
stroke
newpath
56302.9 31973.2 moveto
56338.8 31901.4 lineto
stroke
newpath
56338.8 31901.4 moveto
56374.7 31757.8 lineto
stroke
newpath
56374.7 31757.8 moveto
56374.7 31578.2 lineto
stroke
newpath
56374.7 31578.2 moveto
56338.8 31434.6 lineto
stroke
newpath
56338.8 31434.6 moveto
56302.9 31362.8 lineto
stroke
newpath
56302.9 31362.8 moveto
56267 31326.9 lineto
stroke
newpath
56267 31326.9 moveto
56195.1 31291 lineto
stroke
newpath
56195.1 31291 moveto
56123.3 31291 lineto
stroke
newpath
56123.3 31291 moveto
56051.5 31326.9 lineto
stroke
newpath
56051.5 31326.9 moveto
56015.6 31362.8 lineto
stroke
newpath
56015.6 31362.8 moveto
55979.7 31434.6 lineto
stroke
newpath
55979.7 31434.6 moveto
55943.8 31578.2 lineto
stroke
newpath
55943.8 31578.2 moveto
55943.8 31757.8 lineto
stroke
newpath
55943.8 31757.8 moveto
55979.7 31901.4 lineto
stroke
newpath
55979.7 31901.4 moveto
56015.6 31973.2 lineto
stroke
newpath
56015.6 31973.2 moveto
56051.5 32009.1 lineto
stroke
newpath
56051.5 32009.1 moveto
56123.3 32045 lineto
stroke
newpath
56697.9 31291 moveto
56697.9 31793.7 lineto
stroke
newpath
56697.9 31721.9 moveto
56733.8 31757.8 lineto
stroke
newpath
56733.8 31757.8 moveto
56805.6 31793.7 lineto
stroke
newpath
56805.6 31793.7 moveto
56913.3 31793.7 lineto
stroke
newpath
56913.3 31793.7 moveto
56985.1 31757.8 lineto
stroke
newpath
56985.1 31757.8 moveto
57021 31685.9 lineto
stroke
newpath
57021 31685.9 moveto
57021 31291 lineto
stroke
newpath
57021 31685.9 moveto
57056.9 31757.8 lineto
stroke
newpath
57056.9 31757.8 moveto
57128.8 31793.7 lineto
stroke
newpath
57128.8 31793.7 moveto
57236.5 31793.7 lineto
stroke
newpath
57236.5 31793.7 moveto
57308.3 31757.8 lineto
stroke
newpath
57308.3 31757.8 moveto
57344.2 31685.9 lineto
stroke
newpath
57344.2 31685.9 moveto
57344.2 31291 lineto
stroke
newpath
57703.3 31291 moveto
57703.3 31793.7 lineto
stroke
newpath
57703.3 31721.9 moveto
57739.2 31757.8 lineto
stroke
newpath
57739.2 31757.8 moveto
57811 31793.7 lineto
stroke
newpath
57811 31793.7 moveto
57918.8 31793.7 lineto
stroke
newpath
57918.8 31793.7 moveto
57990.6 31757.8 lineto
stroke
newpath
57990.6 31757.8 moveto
58026.5 31685.9 lineto
stroke
newpath
58026.5 31685.9 moveto
58026.5 31291 lineto
stroke
newpath
58026.5 31685.9 moveto
58062.4 31757.8 lineto
stroke
newpath
58062.4 31757.8 moveto
58134.2 31793.7 lineto
stroke
newpath
58134.2 31793.7 moveto
58241.9 31793.7 lineto
stroke
newpath
58241.9 31793.7 moveto
58313.7 31757.8 lineto
stroke
newpath
58313.7 31757.8 moveto
58349.7 31685.9 lineto
stroke
newpath
58349.7 31685.9 moveto
58349.7 31291 lineto
stroke
newpath
59699.8 32080.9 moveto
59053.5 31111.4 lineto
stroke
newpath
60547.2 32045 moveto
60619.1 32045 lineto
stroke
newpath
60619.1 32045 moveto
60690.9 32009.1 lineto
stroke
newpath
60690.9 32009.1 moveto
60726.8 31973.2 lineto
stroke
newpath
60726.8 31973.2 moveto
60762.7 31901.4 lineto
stroke
newpath
60762.7 31901.4 moveto
60798.6 31757.8 lineto
stroke
newpath
60798.6 31757.8 moveto
60798.6 31578.2 lineto
stroke
newpath
60798.6 31578.2 moveto
60762.7 31434.6 lineto
stroke
newpath
60762.7 31434.6 moveto
60726.8 31362.8 lineto
stroke
newpath
60726.8 31362.8 moveto
60690.9 31326.9 lineto
stroke
newpath
60690.9 31326.9 moveto
60619.1 31291 lineto
stroke
newpath
60619.1 31291 moveto
60547.2 31291 lineto
stroke
newpath
60547.2 31291 moveto
60475.4 31326.9 lineto
stroke
newpath
60475.4 31326.9 moveto
60439.5 31362.8 lineto
stroke
newpath
60439.5 31362.8 moveto
60403.6 31434.6 lineto
stroke
newpath
60403.6 31434.6 moveto
60367.7 31578.2 lineto
stroke
newpath
60367.7 31578.2 moveto
60367.7 31757.8 lineto
stroke
newpath
60367.7 31757.8 moveto
60403.6 31901.4 lineto
stroke
newpath
60403.6 31901.4 moveto
60439.5 31973.2 lineto
stroke
newpath
60439.5 31973.2 moveto
60475.4 32009.1 lineto
stroke
newpath
60475.4 32009.1 moveto
60547.2 32045 lineto
stroke
newpath
61121.8 31362.8 moveto
61157.7 31326.9 lineto
stroke
newpath
61157.7 31326.9 moveto
61121.8 31291 lineto
stroke
newpath
61121.8 31291 moveto
61085.9 31326.9 lineto
stroke
newpath
61085.9 31326.9 moveto
61121.8 31362.8 lineto
stroke
newpath
61121.8 31362.8 moveto
61121.8 31291 lineto
stroke
newpath
61624.5 32045 moveto
61696.3 32045 lineto
stroke
newpath
61696.3 32045 moveto
61768.1 32009.1 lineto
stroke
newpath
61768.1 32009.1 moveto
61804 31973.2 lineto
stroke
newpath
61804 31973.2 moveto
61839.9 31901.4 lineto
stroke
newpath
61839.9 31901.4 moveto
61875.9 31757.8 lineto
stroke
newpath
61875.9 31757.8 moveto
61875.9 31578.2 lineto
stroke
newpath
61875.9 31578.2 moveto
61839.9 31434.6 lineto
stroke
newpath
61839.9 31434.6 moveto
61804 31362.8 lineto
stroke
newpath
61804 31362.8 moveto
61768.1 31326.9 lineto
stroke
newpath
61768.1 31326.9 moveto
61696.3 31291 lineto
stroke
newpath
61696.3 31291 moveto
61624.5 31291 lineto
stroke
newpath
61624.5 31291 moveto
61552.7 31326.9 lineto
stroke
newpath
61552.7 31326.9 moveto
61516.8 31362.8 lineto
stroke
newpath
61516.8 31362.8 moveto
61480.9 31434.6 lineto
stroke
newpath
61480.9 31434.6 moveto
61445 31578.2 lineto
stroke
newpath
61445 31578.2 moveto
61445 31757.8 lineto
stroke
newpath
61445 31757.8 moveto
61480.9 31901.4 lineto
stroke
newpath
61480.9 31901.4 moveto
61516.8 31973.2 lineto
stroke
newpath
61516.8 31973.2 moveto
61552.7 32009.1 lineto
stroke
newpath
61552.7 32009.1 moveto
61624.5 32045 lineto
stroke
newpath
62127.2 32045 moveto
62594 32045 lineto
stroke
newpath
62594 32045 moveto
62342.7 31757.8 lineto
stroke
newpath
62342.7 31757.8 moveto
62450.4 31757.8 lineto
stroke
newpath
62450.4 31757.8 moveto
62522.2 31721.9 lineto
stroke
newpath
62522.2 31721.9 moveto
62558.1 31685.9 lineto
stroke
newpath
62558.1 31685.9 moveto
62594 31614.1 lineto
stroke
newpath
62594 31614.1 moveto
62594 31434.6 lineto
stroke
newpath
62594 31434.6 moveto
62558.1 31362.8 lineto
stroke
newpath
62558.1 31362.8 moveto
62522.2 31326.9 lineto
stroke
newpath
62522.2 31326.9 moveto
62450.4 31291 lineto
stroke
newpath
62450.4 31291 moveto
62234.9 31291 lineto
stroke
newpath
62234.9 31291 moveto
62163.1 31326.9 lineto
stroke
newpath
62163.1 31326.9 moveto
62127.2 31362.8 lineto
stroke
newpath
63312.2 31291 moveto
62881.3 31291 lineto
stroke
newpath
63096.7 31291 moveto
63096.7 32045 lineto
stroke
newpath
63096.7 32045 moveto
63024.9 31937.3 lineto
stroke
newpath
63024.9 31937.3 moveto
62953.1 31865.5 lineto
stroke
newpath
62953.1 31865.5 moveto
62881.3 31829.6 lineto
stroke
newpath
63994.4 32045 moveto
63635.4 32045 lineto
stroke
newpath
63635.4 32045 moveto
63599.5 31685.9 lineto
stroke
newpath
63599.5 31685.9 moveto
63635.4 31721.9 lineto
stroke
newpath
63635.4 31721.9 moveto
63707.2 31757.8 lineto
stroke
newpath
63707.2 31757.8 moveto
63886.7 31757.8 lineto
stroke
newpath
63886.7 31757.8 moveto
63958.5 31721.9 lineto
stroke
newpath
63958.5 31721.9 moveto
63994.4 31685.9 lineto
stroke
newpath
63994.4 31685.9 moveto
64030.4 31614.1 lineto
stroke
newpath
64030.4 31614.1 moveto
64030.4 31434.6 lineto
stroke
newpath
64030.4 31434.6 moveto
63994.4 31362.8 lineto
stroke
newpath
63994.4 31362.8 moveto
63958.5 31326.9 lineto
stroke
newpath
63958.5 31326.9 moveto
63886.7 31291 lineto
stroke
newpath
63886.7 31291 moveto
63707.2 31291 lineto
stroke
newpath
63707.2 31291 moveto
63635.4 31326.9 lineto
stroke
newpath
63635.4 31326.9 moveto
63599.5 31362.8 lineto
stroke
newpath
64317.6 32045 moveto
64317.6 31901.4 lineto
stroke
newpath
64604.9 32045 moveto
64604.9 31901.4 lineto
stroke
newpath
65596 31003.7 moveto
65560.1 31039.6 lineto
stroke
newpath
65560.1 31039.6 moveto
65488.2 31147.3 lineto
stroke
newpath
65488.2 31147.3 moveto
65452.3 31219.1 lineto
stroke
newpath
65452.3 31219.1 moveto
65416.4 31326.9 lineto
stroke
newpath
65416.4 31326.9 moveto
65380.5 31506.4 lineto
stroke
newpath
65380.5 31506.4 moveto
65380.5 31650 lineto
stroke
newpath
65380.5 31650 moveto
65416.4 31829.6 lineto
stroke
newpath
65416.4 31829.6 moveto
65452.3 31937.3 lineto
stroke
newpath
65452.3 31937.3 moveto
65488.2 32009.1 lineto
stroke
newpath
65488.2 32009.1 moveto
65560.1 32116.8 lineto
stroke
newpath
65560.1 32116.8 moveto
65596 32152.8 lineto
stroke
newpath
66206.4 32045 moveto
66062.8 32045 lineto
stroke
newpath
66062.8 32045 moveto
65991 32009.1 lineto
stroke
newpath
65991 32009.1 moveto
65955 31973.2 lineto
stroke
newpath
65955 31973.2 moveto
65883.2 31865.5 lineto
stroke
newpath
65883.2 31865.5 moveto
65847.3 31721.9 lineto
stroke
newpath
65847.3 31721.9 moveto
65847.3 31434.6 lineto
stroke
newpath
65847.3 31434.6 moveto
65883.2 31362.8 lineto
stroke
newpath
65883.2 31362.8 moveto
65919.1 31326.9 lineto
stroke
newpath
65919.1 31326.9 moveto
65991 31291 lineto
stroke
newpath
65991 31291 moveto
66134.6 31291 lineto
stroke
newpath
66134.6 31291 moveto
66206.4 31326.9 lineto
stroke
newpath
66206.4 31326.9 moveto
66242.3 31362.8 lineto
stroke
newpath
66242.3 31362.8 moveto
66278.2 31434.6 lineto
stroke
newpath
66278.2 31434.6 moveto
66278.2 31614.1 lineto
stroke
newpath
66278.2 31614.1 moveto
66242.3 31685.9 lineto
stroke
newpath
66242.3 31685.9 moveto
66206.4 31721.9 lineto
stroke
newpath
66206.4 31721.9 moveto
66134.6 31757.8 lineto
stroke
newpath
66134.6 31757.8 moveto
65991 31757.8 lineto
stroke
newpath
65991 31757.8 moveto
65919.1 31721.9 lineto
stroke
newpath
65919.1 31721.9 moveto
65883.2 31685.9 lineto
stroke
newpath
65883.2 31685.9 moveto
65847.3 31614.1 lineto
stroke
newpath
66924.6 31793.7 moveto
66924.6 31291 lineto
stroke
newpath
66745 32080.9 moveto
66565.5 31542.3 lineto
stroke
newpath
66565.5 31542.3 moveto
67032.3 31542.3 lineto
stroke
newpath
67772 31291 moveto
67772 32045 lineto
stroke
newpath
68095.2 31291 moveto
68095.2 31685.9 lineto
stroke
newpath
68095.2 31685.9 moveto
68059.3 31757.8 lineto
stroke
newpath
68059.3 31757.8 moveto
67987.5 31793.7 lineto
stroke
newpath
67987.5 31793.7 moveto
67879.7 31793.7 lineto
stroke
newpath
67879.7 31793.7 moveto
67807.9 31757.8 lineto
stroke
newpath
67807.9 31757.8 moveto
67772 31721.9 lineto
stroke
newpath
68562 31291 moveto
68490.2 31326.9 lineto
stroke
newpath
68490.2 31326.9 moveto
68454.3 31362.8 lineto
stroke
newpath
68454.3 31362.8 moveto
68418.4 31434.6 lineto
stroke
newpath
68418.4 31434.6 moveto
68418.4 31650 lineto
stroke
newpath
68418.4 31650 moveto
68454.3 31721.9 lineto
stroke
newpath
68454.3 31721.9 moveto
68490.2 31757.8 lineto
stroke
newpath
68490.2 31757.8 moveto
68562 31793.7 lineto
stroke
newpath
68562 31793.7 moveto
68669.7 31793.7 lineto
stroke
newpath
68669.7 31793.7 moveto
68741.5 31757.8 lineto
stroke
newpath
68741.5 31757.8 moveto
68777.4 31721.9 lineto
stroke
newpath
68777.4 31721.9 moveto
68813.4 31650 lineto
stroke
newpath
68813.4 31650 moveto
68813.4 31434.6 lineto
stroke
newpath
68813.4 31434.6 moveto
68777.4 31362.8 lineto
stroke
newpath
68777.4 31362.8 moveto
68741.5 31326.9 lineto
stroke
newpath
68741.5 31326.9 moveto
68669.7 31291 lineto
stroke
newpath
68669.7 31291 moveto
68562 31291 lineto
stroke
newpath
69244.3 31291 moveto
69172.4 31326.9 lineto
stroke
newpath
69172.4 31326.9 moveto
69136.5 31398.7 lineto
stroke
newpath
69136.5 31398.7 moveto
69136.5 32045 lineto
stroke
newpath
69818.8 31326.9 moveto
69747 31291 lineto
stroke
newpath
69747 31291 moveto
69603.3 31291 lineto
stroke
newpath
69603.3 31291 moveto
69531.5 31326.9 lineto
stroke
newpath
69531.5 31326.9 moveto
69495.6 31398.7 lineto
stroke
newpath
69495.6 31398.7 moveto
69495.6 31685.9 lineto
stroke
newpath
69495.6 31685.9 moveto
69531.5 31757.8 lineto
stroke
newpath
69531.5 31757.8 moveto
69603.3 31793.7 lineto
stroke
newpath
69603.3 31793.7 moveto
69747 31793.7 lineto
stroke
newpath
69747 31793.7 moveto
69818.8 31757.8 lineto
stroke
newpath
69818.8 31757.8 moveto
69854.7 31685.9 lineto
stroke
newpath
69854.7 31685.9 moveto
69854.7 31614.1 lineto
stroke
newpath
69854.7 31614.1 moveto
69495.6 31542.3 lineto
stroke
newpath
70142 31326.9 moveto
70213.8 31291 lineto
stroke
newpath
70213.8 31291 moveto
70357.4 31291 lineto
stroke
newpath
70357.4 31291 moveto
70429.2 31326.9 lineto
stroke
newpath
70429.2 31326.9 moveto
70465.1 31398.7 lineto
stroke
newpath
70465.1 31398.7 moveto
70465.1 31434.6 lineto
stroke
newpath
70465.1 31434.6 moveto
70429.2 31506.4 lineto
stroke
newpath
70429.2 31506.4 moveto
70357.4 31542.3 lineto
stroke
newpath
70357.4 31542.3 moveto
70249.7 31542.3 lineto
stroke
newpath
70249.7 31542.3 moveto
70177.9 31578.2 lineto
stroke
newpath
70177.9 31578.2 moveto
70142 31650 lineto
stroke
newpath
70142 31650 moveto
70142 31685.9 lineto
stroke
newpath
70142 31685.9 moveto
70177.9 31757.8 lineto
stroke
newpath
70177.9 31757.8 moveto
70249.7 31793.7 lineto
stroke
newpath
70249.7 31793.7 moveto
70357.4 31793.7 lineto
stroke
newpath
70357.4 31793.7 moveto
70429.2 31757.8 lineto
stroke
newpath
70716.5 31003.7 moveto
70752.4 31039.6 lineto
stroke
newpath
70752.4 31039.6 moveto
70824.2 31147.3 lineto
stroke
newpath
70824.2 31147.3 moveto
70860.1 31219.1 lineto
stroke
newpath
70860.1 31219.1 moveto
70896 31326.9 lineto
stroke
newpath
70896 31326.9 moveto
70931.9 31506.4 lineto
stroke
newpath
70931.9 31506.4 moveto
70931.9 31650 lineto
stroke
newpath
70931.9 31650 moveto
70896 31829.6 lineto
stroke
newpath
70896 31829.6 moveto
70860.1 31937.3 lineto
stroke
newpath
70860.1 31937.3 moveto
70824.2 32009.1 lineto
stroke
newpath
70824.2 32009.1 moveto
70752.4 32116.8 lineto
stroke
newpath
70752.4 32116.8 moveto
70716.5 32152.8 lineto
stroke
38.3071 setlinewidth
newpath
52341 30828.2 moveto
52341 30445.2 lineto
stroke
newpath
52149.4 30636.7 moveto
52532.5 30636.7 lineto
stroke
75.4076 setlinewidth
0 0 0 setrgbcolor
0 0 0 setrgbcolor
newpath
53861.1 30295.6 moveto
53430.2 30295.6 lineto
stroke
newpath
53645.7 30295.6 moveto
53645.7 31049.6 lineto
stroke
newpath
53645.7 31049.6 moveto
53573.8 30941.9 lineto
stroke
newpath
53573.8 30941.9 moveto
53502 30870.1 lineto
stroke
newpath
53502 30870.1 moveto
53430.2 30834.2 lineto
stroke
newpath
54184.3 30367.4 moveto
54220.2 30331.5 lineto
stroke
newpath
54220.2 30331.5 moveto
54184.3 30295.6 lineto
stroke
newpath
54184.3 30295.6 moveto
54148.4 30331.5 lineto
stroke
newpath
54148.4 30331.5 moveto
54184.3 30367.4 lineto
stroke
newpath
54184.3 30367.4 moveto
54184.3 30295.6 lineto
stroke
newpath
54687 31049.6 moveto
54758.8 31049.6 lineto
stroke
newpath
54758.8 31049.6 moveto
54830.6 31013.7 lineto
stroke
newpath
54830.6 31013.7 moveto
54866.5 30977.8 lineto
stroke
newpath
54866.5 30977.8 moveto
54902.4 30906 lineto
stroke
newpath
54902.4 30906 moveto
54938.4 30762.4 lineto
stroke
newpath
54938.4 30762.4 moveto
54938.4 30582.8 lineto
stroke
newpath
54938.4 30582.8 moveto
54902.4 30439.2 lineto
stroke
newpath
54902.4 30439.2 moveto
54866.5 30367.4 lineto
stroke
newpath
54866.5 30367.4 moveto
54830.6 30331.5 lineto
stroke
newpath
54830.6 30331.5 moveto
54758.8 30295.6 lineto
stroke
newpath
54758.8 30295.6 moveto
54687 30295.6 lineto
stroke
newpath
54687 30295.6 moveto
54615.2 30331.5 lineto
stroke
newpath
54615.2 30331.5 moveto
54579.3 30367.4 lineto
stroke
newpath
54579.3 30367.4 moveto
54543.4 30439.2 lineto
stroke
newpath
54543.4 30439.2 moveto
54507.5 30582.8 lineto
stroke
newpath
54507.5 30582.8 moveto
54507.5 30762.4 lineto
stroke
newpath
54507.5 30762.4 moveto
54543.4 30906 lineto
stroke
newpath
54543.4 30906 moveto
54579.3 30977.8 lineto
stroke
newpath
54579.3 30977.8 moveto
54615.2 31013.7 lineto
stroke
newpath
54615.2 31013.7 moveto
54687 31049.6 lineto
stroke
newpath
55656.5 30295.6 moveto
55225.6 30295.6 lineto
stroke
newpath
55441.1 30295.6 moveto
55441.1 31049.6 lineto
stroke
newpath
55441.1 31049.6 moveto
55369.3 30941.9 lineto
stroke
newpath
55369.3 30941.9 moveto
55297.4 30870.1 lineto
stroke
newpath
55297.4 30870.1 moveto
55225.6 30834.2 lineto
stroke
newpath
56302.9 31049.6 moveto
56159.2 31049.6 lineto
stroke
newpath
56159.2 31049.6 moveto
56087.4 31013.7 lineto
stroke
newpath
56087.4 31013.7 moveto
56051.5 30977.8 lineto
stroke
newpath
56051.5 30977.8 moveto
55979.7 30870.1 lineto
stroke
newpath
55979.7 30870.1 moveto
55943.8 30726.5 lineto
stroke
newpath
55943.8 30726.5 moveto
55943.8 30439.2 lineto
stroke
newpath
55943.8 30439.2 moveto
55979.7 30367.4 lineto
stroke
newpath
55979.7 30367.4 moveto
56015.6 30331.5 lineto
stroke
newpath
56015.6 30331.5 moveto
56087.4 30295.6 lineto
stroke
newpath
56087.4 30295.6 moveto
56231.1 30295.6 lineto
stroke
newpath
56231.1 30295.6 moveto
56302.9 30331.5 lineto
stroke
newpath
56302.9 30331.5 moveto
56338.8 30367.4 lineto
stroke
newpath
56338.8 30367.4 moveto
56374.7 30439.2 lineto
stroke
newpath
56374.7 30439.2 moveto
56374.7 30618.7 lineto
stroke
newpath
56374.7 30618.7 moveto
56338.8 30690.6 lineto
stroke
newpath
56338.8 30690.6 moveto
56302.9 30726.5 lineto
stroke
newpath
56302.9 30726.5 moveto
56231.1 30762.4 lineto
stroke
newpath
56231.1 30762.4 moveto
56087.4 30762.4 lineto
stroke
newpath
56087.4 30762.4 moveto
56015.6 30726.5 lineto
stroke
newpath
56015.6 30726.5 moveto
55979.7 30690.6 lineto
stroke
newpath
55979.7 30690.6 moveto
55943.8 30618.7 lineto
stroke
newpath
56697.9 30295.6 moveto
56697.9 30798.3 lineto
stroke
newpath
56697.9 30726.5 moveto
56733.8 30762.4 lineto
stroke
newpath
56733.8 30762.4 moveto
56805.6 30798.3 lineto
stroke
newpath
56805.6 30798.3 moveto
56913.3 30798.3 lineto
stroke
newpath
56913.3 30798.3 moveto
56985.1 30762.4 lineto
stroke
newpath
56985.1 30762.4 moveto
57021 30690.6 lineto
stroke
newpath
57021 30690.6 moveto
57021 30295.6 lineto
stroke
newpath
57021 30690.6 moveto
57056.9 30762.4 lineto
stroke
newpath
57056.9 30762.4 moveto
57128.8 30798.3 lineto
stroke
newpath
57128.8 30798.3 moveto
57236.5 30798.3 lineto
stroke
newpath
57236.5 30798.3 moveto
57308.3 30762.4 lineto
stroke
newpath
57308.3 30762.4 moveto
57344.2 30690.6 lineto
stroke
newpath
57344.2 30690.6 moveto
57344.2 30295.6 lineto
stroke
newpath
57703.3 30295.6 moveto
57703.3 30798.3 lineto
stroke
newpath
57703.3 30726.5 moveto
57739.2 30762.4 lineto
stroke
newpath
57739.2 30762.4 moveto
57811 30798.3 lineto
stroke
newpath
57811 30798.3 moveto
57918.8 30798.3 lineto
stroke
newpath
57918.8 30798.3 moveto
57990.6 30762.4 lineto
stroke
newpath
57990.6 30762.4 moveto
58026.5 30690.6 lineto
stroke
newpath
58026.5 30690.6 moveto
58026.5 30295.6 lineto
stroke
newpath
58026.5 30690.6 moveto
58062.4 30762.4 lineto
stroke
newpath
58062.4 30762.4 moveto
58134.2 30798.3 lineto
stroke
newpath
58134.2 30798.3 moveto
58241.9 30798.3 lineto
stroke
newpath
58241.9 30798.3 moveto
58313.7 30762.4 lineto
stroke
newpath
58313.7 30762.4 moveto
58349.7 30690.6 lineto
stroke
newpath
58349.7 30690.6 moveto
58349.7 30295.6 lineto
stroke
newpath
59699.8 31085.6 moveto
59053.5 30116 lineto
stroke
newpath
60547.2 31049.6 moveto
60619.1 31049.6 lineto
stroke
newpath
60619.1 31049.6 moveto
60690.9 31013.7 lineto
stroke
newpath
60690.9 31013.7 moveto
60726.8 30977.8 lineto
stroke
newpath
60726.8 30977.8 moveto
60762.7 30906 lineto
stroke
newpath
60762.7 30906 moveto
60798.6 30762.4 lineto
stroke
newpath
60798.6 30762.4 moveto
60798.6 30582.8 lineto
stroke
newpath
60798.6 30582.8 moveto
60762.7 30439.2 lineto
stroke
newpath
60762.7 30439.2 moveto
60726.8 30367.4 lineto
stroke
newpath
60726.8 30367.4 moveto
60690.9 30331.5 lineto
stroke
newpath
60690.9 30331.5 moveto
60619.1 30295.6 lineto
stroke
newpath
60619.1 30295.6 moveto
60547.2 30295.6 lineto
stroke
newpath
60547.2 30295.6 moveto
60475.4 30331.5 lineto
stroke
newpath
60475.4 30331.5 moveto
60439.5 30367.4 lineto
stroke
newpath
60439.5 30367.4 moveto
60403.6 30439.2 lineto
stroke
newpath
60403.6 30439.2 moveto
60367.7 30582.8 lineto
stroke
newpath
60367.7 30582.8 moveto
60367.7 30762.4 lineto
stroke
newpath
60367.7 30762.4 moveto
60403.6 30906 lineto
stroke
newpath
60403.6 30906 moveto
60439.5 30977.8 lineto
stroke
newpath
60439.5 30977.8 moveto
60475.4 31013.7 lineto
stroke
newpath
60475.4 31013.7 moveto
60547.2 31049.6 lineto
stroke
newpath
61121.8 30367.4 moveto
61157.7 30331.5 lineto
stroke
newpath
61157.7 30331.5 moveto
61121.8 30295.6 lineto
stroke
newpath
61121.8 30295.6 moveto
61085.9 30331.5 lineto
stroke
newpath
61085.9 30331.5 moveto
61121.8 30367.4 lineto
stroke
newpath
61121.8 30367.4 moveto
61121.8 30295.6 lineto
stroke
newpath
61624.5 31049.6 moveto
61696.3 31049.6 lineto
stroke
newpath
61696.3 31049.6 moveto
61768.1 31013.7 lineto
stroke
newpath
61768.1 31013.7 moveto
61804 30977.8 lineto
stroke
newpath
61804 30977.8 moveto
61839.9 30906 lineto
stroke
newpath
61839.9 30906 moveto
61875.9 30762.4 lineto
stroke
newpath
61875.9 30762.4 moveto
61875.9 30582.8 lineto
stroke
newpath
61875.9 30582.8 moveto
61839.9 30439.2 lineto
stroke
newpath
61839.9 30439.2 moveto
61804 30367.4 lineto
stroke
newpath
61804 30367.4 moveto
61768.1 30331.5 lineto
stroke
newpath
61768.1 30331.5 moveto
61696.3 30295.6 lineto
stroke
newpath
61696.3 30295.6 moveto
61624.5 30295.6 lineto
stroke
newpath
61624.5 30295.6 moveto
61552.7 30331.5 lineto
stroke
newpath
61552.7 30331.5 moveto
61516.8 30367.4 lineto
stroke
newpath
61516.8 30367.4 moveto
61480.9 30439.2 lineto
stroke
newpath
61480.9 30439.2 moveto
61445 30582.8 lineto
stroke
newpath
61445 30582.8 moveto
61445 30762.4 lineto
stroke
newpath
61445 30762.4 moveto
61480.9 30906 lineto
stroke
newpath
61480.9 30906 moveto
61516.8 30977.8 lineto
stroke
newpath
61516.8 30977.8 moveto
61552.7 31013.7 lineto
stroke
newpath
61552.7 31013.7 moveto
61624.5 31049.6 lineto
stroke
newpath
62522.2 30798.3 moveto
62522.2 30295.6 lineto
stroke
newpath
62342.7 31085.6 moveto
62163.1 30546.9 lineto
stroke
newpath
62163.1 30546.9 moveto
62629.9 30546.9 lineto
stroke
newpath
63060.8 31049.6 moveto
63132.6 31049.6 lineto
stroke
newpath
63132.6 31049.6 moveto
63204.5 31013.7 lineto
stroke
newpath
63204.5 31013.7 moveto
63240.4 30977.8 lineto
stroke
newpath
63240.4 30977.8 moveto
63276.3 30906 lineto
stroke
newpath
63276.3 30906 moveto
63312.2 30762.4 lineto
stroke
newpath
63312.2 30762.4 moveto
63312.2 30582.8 lineto
stroke
newpath
63312.2 30582.8 moveto
63276.3 30439.2 lineto
stroke
newpath
63276.3 30439.2 moveto
63240.4 30367.4 lineto
stroke
newpath
63240.4 30367.4 moveto
63204.5 30331.5 lineto
stroke
newpath
63204.5 30331.5 moveto
63132.6 30295.6 lineto
stroke
newpath
63132.6 30295.6 moveto
63060.8 30295.6 lineto
stroke
newpath
63060.8 30295.6 moveto
62989 30331.5 lineto
stroke
newpath
62989 30331.5 moveto
62953.1 30367.4 lineto
stroke
newpath
62953.1 30367.4 moveto
62917.2 30439.2 lineto
stroke
newpath
62917.2 30439.2 moveto
62881.3 30582.8 lineto
stroke
newpath
62881.3 30582.8 moveto
62881.3 30762.4 lineto
stroke
newpath
62881.3 30762.4 moveto
62917.2 30906 lineto
stroke
newpath
62917.2 30906 moveto
62953.1 30977.8 lineto
stroke
newpath
62953.1 30977.8 moveto
62989 31013.7 lineto
stroke
newpath
62989 31013.7 moveto
63060.8 31049.6 lineto
stroke
newpath
63779 31049.6 moveto
63850.8 31049.6 lineto
stroke
newpath
63850.8 31049.6 moveto
63922.6 31013.7 lineto
stroke
newpath
63922.6 31013.7 moveto
63958.5 30977.8 lineto
stroke
newpath
63958.5 30977.8 moveto
63994.4 30906 lineto
stroke
newpath
63994.4 30906 moveto
64030.4 30762.4 lineto
stroke
newpath
64030.4 30762.4 moveto
64030.4 30582.8 lineto
stroke
newpath
64030.4 30582.8 moveto
63994.4 30439.2 lineto
stroke
newpath
63994.4 30439.2 moveto
63958.5 30367.4 lineto
stroke
newpath
63958.5 30367.4 moveto
63922.6 30331.5 lineto
stroke
newpath
63922.6 30331.5 moveto
63850.8 30295.6 lineto
stroke
newpath
63850.8 30295.6 moveto
63779 30295.6 lineto
stroke
newpath
63779 30295.6 moveto
63707.2 30331.5 lineto
stroke
newpath
63707.2 30331.5 moveto
63671.3 30367.4 lineto
stroke
newpath
63671.3 30367.4 moveto
63635.4 30439.2 lineto
stroke
newpath
63635.4 30439.2 moveto
63599.5 30582.8 lineto
stroke
newpath
63599.5 30582.8 moveto
63599.5 30762.4 lineto
stroke
newpath
63599.5 30762.4 moveto
63635.4 30906 lineto
stroke
newpath
63635.4 30906 moveto
63671.3 30977.8 lineto
stroke
newpath
63671.3 30977.8 moveto
63707.2 31013.7 lineto
stroke
newpath
63707.2 31013.7 moveto
63779 31049.6 lineto
stroke
newpath
64317.6 31049.6 moveto
64317.6 30906 lineto
stroke
newpath
64604.9 31049.6 moveto
64604.9 30906 lineto
stroke
newpath
65596 30008.3 moveto
65560.1 30044.2 lineto
stroke
newpath
65560.1 30044.2 moveto
65488.2 30151.9 lineto
stroke
newpath
65488.2 30151.9 moveto
65452.3 30223.8 lineto
stroke
newpath
65452.3 30223.8 moveto
65416.4 30331.5 lineto
stroke
newpath
65416.4 30331.5 moveto
65380.5 30511 lineto
stroke
newpath
65380.5 30511 moveto
65380.5 30654.7 lineto
stroke
newpath
65380.5 30654.7 moveto
65416.4 30834.2 lineto
stroke
newpath
65416.4 30834.2 moveto
65452.3 30941.9 lineto
stroke
newpath
65452.3 30941.9 moveto
65488.2 31013.7 lineto
stroke
newpath
65488.2 31013.7 moveto
65560.1 31121.5 lineto
stroke
newpath
65560.1 31121.5 moveto
65596 31157.4 lineto
stroke
newpath
65991 30726.5 moveto
65919.1 30762.4 lineto
stroke
newpath
65919.1 30762.4 moveto
65883.2 30798.3 lineto
stroke
newpath
65883.2 30798.3 moveto
65847.3 30870.1 lineto
stroke
newpath
65847.3 30870.1 moveto
65847.3 30906 lineto
stroke
newpath
65847.3 30906 moveto
65883.2 30977.8 lineto
stroke
newpath
65883.2 30977.8 moveto
65919.1 31013.7 lineto
stroke
newpath
65919.1 31013.7 moveto
65991 31049.6 lineto
stroke
newpath
65991 31049.6 moveto
66134.6 31049.6 lineto
stroke
newpath
66134.6 31049.6 moveto
66206.4 31013.7 lineto
stroke
newpath
66206.4 31013.7 moveto
66242.3 30977.8 lineto
stroke
newpath
66242.3 30977.8 moveto
66278.2 30906 lineto
stroke
newpath
66278.2 30906 moveto
66278.2 30870.1 lineto
stroke
newpath
66278.2 30870.1 moveto
66242.3 30798.3 lineto
stroke
newpath
66242.3 30798.3 moveto
66206.4 30762.4 lineto
stroke
newpath
66206.4 30762.4 moveto
66134.6 30726.5 lineto
stroke
newpath
66134.6 30726.5 moveto
65991 30726.5 lineto
stroke
newpath
65991 30726.5 moveto
65919.1 30690.6 lineto
stroke
newpath
65919.1 30690.6 moveto
65883.2 30654.7 lineto
stroke
newpath
65883.2 30654.7 moveto
65847.3 30582.8 lineto
stroke
newpath
65847.3 30582.8 moveto
65847.3 30439.2 lineto
stroke
newpath
65847.3 30439.2 moveto
65883.2 30367.4 lineto
stroke
newpath
65883.2 30367.4 moveto
65919.1 30331.5 lineto
stroke
newpath
65919.1 30331.5 moveto
65991 30295.6 lineto
stroke
newpath
65991 30295.6 moveto
66134.6 30295.6 lineto
stroke
newpath
66134.6 30295.6 moveto
66206.4 30331.5 lineto
stroke
newpath
66206.4 30331.5 moveto
66242.3 30367.4 lineto
stroke
newpath
66242.3 30367.4 moveto
66278.2 30439.2 lineto
stroke
newpath
66278.2 30439.2 moveto
66278.2 30582.8 lineto
stroke
newpath
66278.2 30582.8 moveto
66242.3 30654.7 lineto
stroke
newpath
66242.3 30654.7 moveto
66206.4 30690.6 lineto
stroke
newpath
66206.4 30690.6 moveto
66134.6 30726.5 lineto
stroke
newpath
66924.6 31049.6 moveto
66780.9 31049.6 lineto
stroke
newpath
66780.9 31049.6 moveto
66709.1 31013.7 lineto
stroke
newpath
66709.1 31013.7 moveto
66673.2 30977.8 lineto
stroke
newpath
66673.2 30977.8 moveto
66601.4 30870.1 lineto
stroke
newpath
66601.4 30870.1 moveto
66565.5 30726.5 lineto
stroke
newpath
66565.5 30726.5 moveto
66565.5 30439.2 lineto
stroke
newpath
66565.5 30439.2 moveto
66601.4 30367.4 lineto
stroke
newpath
66601.4 30367.4 moveto
66637.3 30331.5 lineto
stroke
newpath
66637.3 30331.5 moveto
66709.1 30295.6 lineto
stroke
newpath
66709.1 30295.6 moveto
66852.8 30295.6 lineto
stroke
newpath
66852.8 30295.6 moveto
66924.6 30331.5 lineto
stroke
newpath
66924.6 30331.5 moveto
66960.5 30367.4 lineto
stroke
newpath
66960.5 30367.4 moveto
66996.4 30439.2 lineto
stroke
newpath
66996.4 30439.2 moveto
66996.4 30618.7 lineto
stroke
newpath
66996.4 30618.7 moveto
66960.5 30690.6 lineto
stroke
newpath
66960.5 30690.6 moveto
66924.6 30726.5 lineto
stroke
newpath
66924.6 30726.5 moveto
66852.8 30762.4 lineto
stroke
newpath
66852.8 30762.4 moveto
66709.1 30762.4 lineto
stroke
newpath
66709.1 30762.4 moveto
66637.3 30726.5 lineto
stroke
newpath
66637.3 30726.5 moveto
66601.4 30690.6 lineto
stroke
newpath
66601.4 30690.6 moveto
66565.5 30618.7 lineto
stroke
newpath
67772 30295.6 moveto
67772 31049.6 lineto
stroke
newpath
68095.2 30295.6 moveto
68095.2 30690.6 lineto
stroke
newpath
68095.2 30690.6 moveto
68059.3 30762.4 lineto
stroke
newpath
68059.3 30762.4 moveto
67987.5 30798.3 lineto
stroke
newpath
67987.5 30798.3 moveto
67879.7 30798.3 lineto
stroke
newpath
67879.7 30798.3 moveto
67807.9 30762.4 lineto
stroke
newpath
67807.9 30762.4 moveto
67772 30726.5 lineto
stroke
newpath
68562 30295.6 moveto
68490.2 30331.5 lineto
stroke
newpath
68490.2 30331.5 moveto
68454.3 30367.4 lineto
stroke
newpath
68454.3 30367.4 moveto
68418.4 30439.2 lineto
stroke
newpath
68418.4 30439.2 moveto
68418.4 30654.7 lineto
stroke
newpath
68418.4 30654.7 moveto
68454.3 30726.5 lineto
stroke
newpath
68454.3 30726.5 moveto
68490.2 30762.4 lineto
stroke
newpath
68490.2 30762.4 moveto
68562 30798.3 lineto
stroke
newpath
68562 30798.3 moveto
68669.7 30798.3 lineto
stroke
newpath
68669.7 30798.3 moveto
68741.5 30762.4 lineto
stroke
newpath
68741.5 30762.4 moveto
68777.4 30726.5 lineto
stroke
newpath
68777.4 30726.5 moveto
68813.4 30654.7 lineto
stroke
newpath
68813.4 30654.7 moveto
68813.4 30439.2 lineto
stroke
newpath
68813.4 30439.2 moveto
68777.4 30367.4 lineto
stroke
newpath
68777.4 30367.4 moveto
68741.5 30331.5 lineto
stroke
newpath
68741.5 30331.5 moveto
68669.7 30295.6 lineto
stroke
newpath
68669.7 30295.6 moveto
68562 30295.6 lineto
stroke
newpath
69244.3 30295.6 moveto
69172.4 30331.5 lineto
stroke
newpath
69172.4 30331.5 moveto
69136.5 30403.3 lineto
stroke
newpath
69136.5 30403.3 moveto
69136.5 31049.6 lineto
stroke
newpath
69818.8 30331.5 moveto
69747 30295.6 lineto
stroke
newpath
69747 30295.6 moveto
69603.3 30295.6 lineto
stroke
newpath
69603.3 30295.6 moveto
69531.5 30331.5 lineto
stroke
newpath
69531.5 30331.5 moveto
69495.6 30403.3 lineto
stroke
newpath
69495.6 30403.3 moveto
69495.6 30690.6 lineto
stroke
newpath
69495.6 30690.6 moveto
69531.5 30762.4 lineto
stroke
newpath
69531.5 30762.4 moveto
69603.3 30798.3 lineto
stroke
newpath
69603.3 30798.3 moveto
69747 30798.3 lineto
stroke
newpath
69747 30798.3 moveto
69818.8 30762.4 lineto
stroke
newpath
69818.8 30762.4 moveto
69854.7 30690.6 lineto
stroke
newpath
69854.7 30690.6 moveto
69854.7 30618.7 lineto
stroke
newpath
69854.7 30618.7 moveto
69495.6 30546.9 lineto
stroke
newpath
70142 30331.5 moveto
70213.8 30295.6 lineto
stroke
newpath
70213.8 30295.6 moveto
70357.4 30295.6 lineto
stroke
newpath
70357.4 30295.6 moveto
70429.2 30331.5 lineto
stroke
newpath
70429.2 30331.5 moveto
70465.1 30403.3 lineto
stroke
newpath
70465.1 30403.3 moveto
70465.1 30439.2 lineto
stroke
newpath
70465.1 30439.2 moveto
70429.2 30511 lineto
stroke
newpath
70429.2 30511 moveto
70357.4 30546.9 lineto
stroke
newpath
70357.4 30546.9 moveto
70249.7 30546.9 lineto
stroke
newpath
70249.7 30546.9 moveto
70177.9 30582.8 lineto
stroke
newpath
70177.9 30582.8 moveto
70142 30654.7 lineto
stroke
newpath
70142 30654.7 moveto
70142 30690.6 lineto
stroke
newpath
70142 30690.6 moveto
70177.9 30762.4 lineto
stroke
newpath
70177.9 30762.4 moveto
70249.7 30798.3 lineto
stroke
newpath
70249.7 30798.3 moveto
70357.4 30798.3 lineto
stroke
newpath
70357.4 30798.3 moveto
70429.2 30762.4 lineto
stroke
newpath
70716.5 30008.3 moveto
70752.4 30044.2 lineto
stroke
newpath
70752.4 30044.2 moveto
70824.2 30151.9 lineto
stroke
newpath
70824.2 30151.9 moveto
70860.1 30223.8 lineto
stroke
newpath
70860.1 30223.8 moveto
70896 30331.5 lineto
stroke
newpath
70896 30331.5 moveto
70931.9 30511 lineto
stroke
newpath
70931.9 30511 moveto
70931.9 30654.7 lineto
stroke
newpath
70931.9 30654.7 moveto
70896 30834.2 lineto
stroke
newpath
70896 30834.2 moveto
70860.1 30941.9 lineto
stroke
newpath
70860.1 30941.9 moveto
70824.2 31013.7 lineto
stroke
newpath
70824.2 31013.7 moveto
70752.4 31121.5 lineto
stroke
newpath
70752.4 31121.5 moveto
70716.5 31157.4 lineto
stroke
showpage
grestore
%%EOF
